[
    {
        "v80VfcXr": "1",
        "b4D63uav": "2",
        "NW3CIk2A": "85",
        "P_SCENE_ID": "0",
        "t5R47iwj": "0",
        "P_PRIORITY": "0",
        "P_SCHEDULE_ID": "50162",
        "P_NEED_SWITCH_INFO": "0",
        "P_HIDE_SWITCH_INFO": "0"
    },
    {
        "v80VfcXr": "100",
        "b4D63uav": "11",
        "NW3CIk2A": "55,15",
        "P_SCENE_ID": "0",
        "t5R47iwj": "0",
        "P_PRIORITY": "0",
        "P_SCHEDULE_ID": "50089",
        "P_NEED_SWITCH_INFO": "0",
        "P_HIDE_SWITCH_INFO": "0"
    },
    {
        "v80VfcXr": "101",
        "b4D63uav": "11",
        "NW3CIk2A": "55,15",
        "P_SCENE_ID": "0",
        "t5R47iwj": "0",
        "P_PRIORITY": "0",
        "P_SCHEDULE_ID": "200027",
        "P_NEED_SWITCH_INFO": "0",
        "P_HIDE_SWITCH_INFO": "0"
    },
    {
        "v80VfcXr": "102",
        "b4D63uav": "11",
        "NW3CIk2A": "55,15",
        "P_SCENE_ID": "0",
        "t5R47iwj": "0",
        "P_PRIORITY": "0",
        "P_SCHEDULE_ID": "200033",
        "P_NEED_SWITCH_INFO": "0",
        "P_HIDE_SWITCH_INFO": "0"
    },
    {
        "v80VfcXr": "200",
        "b4D63uav": "20",
        "NW3CIk2A": "0",
        "P_SCENE_ID": "0",
        "t5R47iwj": "0",
        "P_PRIORITY": "0",
        "P_SCHEDULE_ID": "200026",
        "P_NEED_SWITCH_INFO": "0",
        "P_HIDE_SWITCH_INFO": "0"
    },
    {
        "v80VfcXr": "300",
        "b4D63uav": "30",
        "NW3CIk2A": "0",
        "P_SCENE_ID": "0",
        "t5R47iwj": "0",
        "P_PRIORITY": "0",
        "P_SCHEDULE_ID": "500004",
        "P_NEED_SWITCH_INFO": "0",
        "P_HIDE_SWITCH_INFO": "0"
    },
    {
        "v80VfcXr": "1000",
        "b4D63uav": "41",
        "NW3CIk2A": "home_banner_raid.png,0,0",
        "P_SCENE_ID": "0",
        "t5R47iwj": "0",
        "P_PRIORITY": "0",
        "P_SCHEDULE_ID": "600011",
        "P_NEED_SWITCH_INFO": "10000152",
        "P_HIDE_SWITCH_INFO": "0"
    },
    {
        "v80VfcXr": "1001",
        "b4D63uav": "41",
        "NW3CIk2A": "home_banner_raid.png,0,0",
        "P_SCENE_ID": "0",
        "t5R47iwj": "0",
        "P_PRIORITY": "0",
        "P_SCHEDULE_ID": "600014",
        "P_NEED_SWITCH_INFO": "10000152",
        "P_HIDE_SWITCH_INFO": "0"
    },
    {
        "v80VfcXr": "1002",
        "b4D63uav": "41",
        "NW3CIk2A": "home_banner_raid.png,0,0",
        "P_SCENE_ID": "0",
        "t5R47iwj": "0",
        "P_PRIORITY": "0",
        "P_SCHEDULE_ID": "600017",
        "P_NEED_SWITCH_INFO": "10000152",
        "P_HIDE_SWITCH_INFO": "0"
    },
    {
        "v80VfcXr": "2001",
        "b4D63uav": "20",
        "NW3CIk2A": "0",
        "P_SCENE_ID": "0",
        "t5R47iwj": "0",
        "P_PRIORITY": "0",
        "P_SCHEDULE_ID": "800000",
        "P_NEED_SWITCH_INFO": "0",
        "P_HIDE_SWITCH_INFO": "0"
    },
    {
        "v80VfcXr": "2002",
        "b4D63uav": "20",
        "NW3CIk2A": "0",
        "P_SCENE_ID": "0",
        "t5R47iwj": "0",
        "P_PRIORITY": "0",
        "P_SCHEDULE_ID": "800001",
        "P_NEED_SWITCH_INFO": "0",
        "P_HIDE_SWITCH_INFO": "0"
    },
    {
        "v80VfcXr": "2003",
        "b4D63uav": "20",
        "NW3CIk2A": "0",
        "P_SCENE_ID": "0",
        "t5R47iwj": "0",
        "P_PRIORITY": "0",
        "P_SCHEDULE_ID": "800002",
        "P_NEED_SWITCH_INFO": "0",
        "P_HIDE_SWITCH_INFO": "0"
    },
    {
        "v80VfcXr": "2004",
        "b4D63uav": "20",
        "NW3CIk2A": "0",
        "P_SCENE_ID": "0",
        "t5R47iwj": "0",
        "P_PRIORITY": "0",
        "P_SCHEDULE_ID": "800003",
        "P_NEED_SWITCH_INFO": "0",
        "P_HIDE_SWITCH_INFO": "0"
    },
    {
        "v80VfcXr": "2005",
        "b4D63uav": "20",
        "NW3CIk2A": "0",
        "P_SCENE_ID": "0",
        "t5R47iwj": "0",
        "P_PRIORITY": "0",
        "P_SCHEDULE_ID": "800004",
        "P_NEED_SWITCH_INFO": "0",
        "P_HIDE_SWITCH_INFO": "0"
    },
    {
        "v80VfcXr": "2006",
        "b4D63uav": "20",
        "NW3CIk2A": "0",
        "P_SCENE_ID": "0",
        "t5R47iwj": "0",
        "P_PRIORITY": "0",
        "P_SCHEDULE_ID": "800005",
        "P_NEED_SWITCH_INFO": "0",
        "P_HIDE_SWITCH_INFO": "0"
    },
    {
        "v80VfcXr": "2007",
        "b4D63uav": "20",
        "NW3CIk2A": "0",
        "P_SCENE_ID": "0",
        "t5R47iwj": "0",
        "P_PRIORITY": "0",
        "P_SCHEDULE_ID": "800006",
        "P_NEED_SWITCH_INFO": "0",
        "P_HIDE_SWITCH_INFO": "0"
    },
    {
        "v80VfcXr": "2008",
        "b4D63uav": "20",
        "NW3CIk2A": "0",
        "P_SCENE_ID": "0",
        "t5R47iwj": "0",
        "P_PRIORITY": "0",
        "P_SCHEDULE_ID": "800007",
        "P_NEED_SWITCH_INFO": "0",
        "P_HIDE_SWITCH_INFO": "0"
    },
    {
        "v80VfcXr": "2009",
        "b4D63uav": "20",
        "NW3CIk2A": "0",
        "P_SCENE_ID": "0",
        "t5R47iwj": "0",
        "P_PRIORITY": "0",
        "P_SCHEDULE_ID": "800008",
        "P_NEED_SWITCH_INFO": "0",
        "P_HIDE_SWITCH_INFO": "0"
    },
    {
        "v80VfcXr": "2010",
        "b4D63uav": "20",
        "NW3CIk2A": "0",
        "P_SCENE_ID": "0",
        "t5R47iwj": "0",
        "P_PRIORITY": "0",
        "P_SCHEDULE_ID": "800009",
        "P_NEED_SWITCH_INFO": "0",
        "P_HIDE_SWITCH_INFO": "0"
    },
    {
        "v80VfcXr": "2011",
        "b4D63uav": "20",
        "NW3CIk2A": "0",
        "P_SCENE_ID": "0",
        "t5R47iwj": "0",
        "P_PRIORITY": "0",
        "P_SCHEDULE_ID": "800010",
        "P_NEED_SWITCH_INFO": "0",
        "P_HIDE_SWITCH_INFO": "0"
    },
    {
        "v80VfcXr": "2012",
        "b4D63uav": "20",
        "NW3CIk2A": "0",
        "P_SCENE_ID": "0",
        "t5R47iwj": "0",
        "P_PRIORITY": "0",
        "P_SCHEDULE_ID": "800011",
        "P_NEED_SWITCH_INFO": "0",
        "P_HIDE_SWITCH_INFO": "0"
    },
    {
        "v80VfcXr": "2013",
        "b4D63uav": "20",
        "NW3CIk2A": "0",
        "P_SCENE_ID": "0",
        "t5R47iwj": "0",
        "P_PRIORITY": "0",
        "P_SCHEDULE_ID": "800012",
        "P_NEED_SWITCH_INFO": "0",
        "P_HIDE_SWITCH_INFO": "0"
    },
    {
        "v80VfcXr": "2014",
        "b4D63uav": "20",
        "NW3CIk2A": "0",
        "P_SCENE_ID": "0",
        "t5R47iwj": "0",
        "P_PRIORITY": "0",
        "P_SCHEDULE_ID": "800013",
        "P_NEED_SWITCH_INFO": "0",
        "P_HIDE_SWITCH_INFO": "0"
    },
    {
        "v80VfcXr": "2015",
        "b4D63uav": "20",
        "NW3CIk2A": "0",
        "P_SCENE_ID": "0",
        "t5R47iwj": "0",
        "P_PRIORITY": "0",
        "P_SCHEDULE_ID": "800014",
        "P_NEED_SWITCH_INFO": "0",
        "P_HIDE_SWITCH_INFO": "0"
    },
    {
        "v80VfcXr": "2016",
        "b4D63uav": "20",
        "NW3CIk2A": "0",
        "P_SCENE_ID": "0",
        "t5R47iwj": "0",
        "P_PRIORITY": "0",
        "P_SCHEDULE_ID": "800015",
        "P_NEED_SWITCH_INFO": "0",
        "P_HIDE_SWITCH_INFO": "0"
    },
    {
        "v80VfcXr": "2017",
        "b4D63uav": "20",
        "NW3CIk2A": "0",
        "P_SCENE_ID": "0",
        "t5R47iwj": "0",
        "P_PRIORITY": "0",
        "P_SCHEDULE_ID": "800016",
        "P_NEED_SWITCH_INFO": "0",
        "P_HIDE_SWITCH_INFO": "0"
    },
    {
        "v80VfcXr": "2018",
        "b4D63uav": "20",
        "NW3CIk2A": "0",
        "P_SCENE_ID": "0",
        "t5R47iwj": "0",
        "P_PRIORITY": "0",
        "P_SCHEDULE_ID": "800017",
        "P_NEED_SWITCH_INFO": "0",
        "P_HIDE_SWITCH_INFO": "0"
    },
    {
        "v80VfcXr": "2019",
        "b4D63uav": "20",
        "NW3CIk2A": "0",
        "P_SCENE_ID": "0",
        "t5R47iwj": "0",
        "P_PRIORITY": "0",
        "P_SCHEDULE_ID": "800018",
        "P_NEED_SWITCH_INFO": "0",
        "P_HIDE_SWITCH_INFO": "0"
    },
    {
        "v80VfcXr": "2020",
        "b4D63uav": "20",
        "NW3CIk2A": "0",
        "P_SCENE_ID": "0",
        "t5R47iwj": "0",
        "P_PRIORITY": "0",
        "P_SCHEDULE_ID": "800019",
        "P_NEED_SWITCH_INFO": "0",
        "P_HIDE_SWITCH_INFO": "0"
    },
    {
        "v80VfcXr": "2021",
        "b4D63uav": "20",
        "NW3CIk2A": "0",
        "P_SCENE_ID": "0",
        "t5R47iwj": "0",
        "P_PRIORITY": "0",
        "P_SCHEDULE_ID": "800020",
        "P_NEED_SWITCH_INFO": "0",
        "P_HIDE_SWITCH_INFO": "0"
    },
    {
        "v80VfcXr": "2022",
        "b4D63uav": "20",
        "NW3CIk2A": "0",
        "P_SCENE_ID": "0",
        "t5R47iwj": "0",
        "P_PRIORITY": "0",
        "P_SCHEDULE_ID": "800021",
        "P_NEED_SWITCH_INFO": "0",
        "P_HIDE_SWITCH_INFO": "0"
    },
    {
        "v80VfcXr": "2023",
        "b4D63uav": "20",
        "NW3CIk2A": "0",
        "P_SCENE_ID": "0",
        "t5R47iwj": "0",
        "P_PRIORITY": "0",
        "P_SCHEDULE_ID": "800022",
        "P_NEED_SWITCH_INFO": "0",
        "P_HIDE_SWITCH_INFO": "0"
    },
    {
        "v80VfcXr": "2024",
        "b4D63uav": "20",
        "NW3CIk2A": "0",
        "P_SCENE_ID": "0",
        "t5R47iwj": "0",
        "P_PRIORITY": "0",
        "P_SCHEDULE_ID": "800023",
        "P_NEED_SWITCH_INFO": "0",
        "P_HIDE_SWITCH_INFO": "0"
    },
    {
        "v80VfcXr": "2025",
        "b4D63uav": "20",
        "NW3CIk2A": "0",
        "P_SCENE_ID": "0",
        "t5R47iwj": "0",
        "P_PRIORITY": "0",
        "P_SCHEDULE_ID": "800024",
        "P_NEED_SWITCH_INFO": "0",
        "P_HIDE_SWITCH_INFO": "0"
    },
    {
        "v80VfcXr": "2026",
        "b4D63uav": "20",
        "NW3CIk2A": "0",
        "P_SCENE_ID": "0",
        "t5R47iwj": "0",
        "P_PRIORITY": "0",
        "P_SCHEDULE_ID": "800025",
        "P_NEED_SWITCH_INFO": "0",
        "P_HIDE_SWITCH_INFO": "0"
    },
    {
        "v80VfcXr": "2027",
        "b4D63uav": "20",
        "NW3CIk2A": "0",
        "P_SCENE_ID": "0",
        "t5R47iwj": "0",
        "P_PRIORITY": "0",
        "P_SCHEDULE_ID": "800026",
        "P_NEED_SWITCH_INFO": "0",
        "P_HIDE_SWITCH_INFO": "0"
    },
    {
        "v80VfcXr": "2028",
        "b4D63uav": "20",
        "NW3CIk2A": "0",
        "P_SCENE_ID": "0",
        "t5R47iwj": "0",
        "P_PRIORITY": "0",
        "P_SCHEDULE_ID": "800027",
        "P_NEED_SWITCH_INFO": "0",
        "P_HIDE_SWITCH_INFO": "0"
    },
    {
        "v80VfcXr": "2029",
        "b4D63uav": "20",
        "NW3CIk2A": "0",
        "P_SCENE_ID": "0",
        "t5R47iwj": "0",
        "P_PRIORITY": "0",
        "P_SCHEDULE_ID": "800028",
        "P_NEED_SWITCH_INFO": "0",
        "P_HIDE_SWITCH_INFO": "0"
    },
    {
        "v80VfcXr": "2030",
        "b4D63uav": "20",
        "NW3CIk2A": "0",
        "P_SCENE_ID": "0",
        "t5R47iwj": "0",
        "P_PRIORITY": "0",
        "P_SCHEDULE_ID": "800029",
        "P_NEED_SWITCH_INFO": "0",
        "P_HIDE_SWITCH_INFO": "0"
    },
    {
        "v80VfcXr": "2031",
        "b4D63uav": "20",
        "NW3CIk2A": "0",
        "P_SCENE_ID": "0",
        "t5R47iwj": "0",
        "P_PRIORITY": "0",
        "P_SCHEDULE_ID": "800030",
        "P_NEED_SWITCH_INFO": "0",
        "P_HIDE_SWITCH_INFO": "0"
    },
    {
        "v80VfcXr": "2032",
        "b4D63uav": "20",
        "NW3CIk2A": "0",
        "P_SCENE_ID": "0",
        "t5R47iwj": "0",
        "P_PRIORITY": "0",
        "P_SCHEDULE_ID": "800031",
        "P_NEED_SWITCH_INFO": "0",
        "P_HIDE_SWITCH_INFO": "0"
    },
    {
        "v80VfcXr": "2033",
        "b4D63uav": "20",
        "NW3CIk2A": "0",
        "P_SCENE_ID": "0",
        "t5R47iwj": "0",
        "P_PRIORITY": "0",
        "P_SCHEDULE_ID": "800032",
        "P_NEED_SWITCH_INFO": "0",
        "P_HIDE_SWITCH_INFO": "0"
    },
    {
        "v80VfcXr": "2034",
        "b4D63uav": "20",
        "NW3CIk2A": "0",
        "P_SCENE_ID": "0",
        "t5R47iwj": "0",
        "P_PRIORITY": "0",
        "P_SCHEDULE_ID": "800033",
        "P_NEED_SWITCH_INFO": "0",
        "P_HIDE_SWITCH_INFO": "0"
    },
    {
        "v80VfcXr": "2035",
        "b4D63uav": "20",
        "NW3CIk2A": "0",
        "P_SCENE_ID": "0",
        "t5R47iwj": "0",
        "P_PRIORITY": "0",
        "P_SCHEDULE_ID": "800034",
        "P_NEED_SWITCH_INFO": "0",
        "P_HIDE_SWITCH_INFO": "0"
    },
    {
        "v80VfcXr": "2036",
        "b4D63uav": "20",
        "NW3CIk2A": "0",
        "P_SCENE_ID": "0",
        "t5R47iwj": "0",
        "P_PRIORITY": "0",
        "P_SCHEDULE_ID": "800035",
        "P_NEED_SWITCH_INFO": "0",
        "P_HIDE_SWITCH_INFO": "0"
    },
    {
        "v80VfcXr": "2037",
        "b4D63uav": "20",
        "NW3CIk2A": "0",
        "P_SCENE_ID": "0",
        "t5R47iwj": "0",
        "P_PRIORITY": "0",
        "P_SCHEDULE_ID": "800036",
        "P_NEED_SWITCH_INFO": "0",
        "P_HIDE_SWITCH_INFO": "0"
    },
    {
        "v80VfcXr": "2038",
        "b4D63uav": "20",
        "NW3CIk2A": "0",
        "P_SCENE_ID": "0",
        "t5R47iwj": "0",
        "P_PRIORITY": "0",
        "P_SCHEDULE_ID": "800037",
        "P_NEED_SWITCH_INFO": "0",
        "P_HIDE_SWITCH_INFO": "0"
    },
    {
        "v80VfcXr": "2039",
        "b4D63uav": "20",
        "NW3CIk2A": "0",
        "P_SCENE_ID": "0",
        "t5R47iwj": "0",
        "P_PRIORITY": "0",
        "P_SCHEDULE_ID": "800038",
        "P_NEED_SWITCH_INFO": "0",
        "P_HIDE_SWITCH_INFO": "0"
    },
    {
        "v80VfcXr": "2040",
        "b4D63uav": "20",
        "NW3CIk2A": "0",
        "P_SCENE_ID": "0",
        "t5R47iwj": "0",
        "P_PRIORITY": "0",
        "P_SCHEDULE_ID": "800039",
        "P_NEED_SWITCH_INFO": "0",
        "P_HIDE_SWITCH_INFO": "0"
    },
    {
        "v80VfcXr": "2041",
        "b4D63uav": "20",
        "NW3CIk2A": "0",
        "P_SCENE_ID": "0",
        "t5R47iwj": "0",
        "P_PRIORITY": "0",
        "P_SCHEDULE_ID": "800040",
        "P_NEED_SWITCH_INFO": "0",
        "P_HIDE_SWITCH_INFO": "0"
    },
    {
        "v80VfcXr": "2042",
        "b4D63uav": "20",
        "NW3CIk2A": "0",
        "P_SCENE_ID": "0",
        "t5R47iwj": "0",
        "P_PRIORITY": "0",
        "P_SCHEDULE_ID": "800041",
        "P_NEED_SWITCH_INFO": "0",
        "P_HIDE_SWITCH_INFO": "0"
    },
    {
        "v80VfcXr": "2043",
        "b4D63uav": "20",
        "NW3CIk2A": "0",
        "P_SCENE_ID": "0",
        "t5R47iwj": "0",
        "P_PRIORITY": "0",
        "P_SCHEDULE_ID": "800042",
        "P_NEED_SWITCH_INFO": "0",
        "P_HIDE_SWITCH_INFO": "0"
    },
    {
        "v80VfcXr": "2044",
        "b4D63uav": "20",
        "NW3CIk2A": "0",
        "P_SCENE_ID": "0",
        "t5R47iwj": "0",
        "P_PRIORITY": "0",
        "P_SCHEDULE_ID": "800043",
        "P_NEED_SWITCH_INFO": "0",
        "P_HIDE_SWITCH_INFO": "0"
    },
    {
        "v80VfcXr": "2045",
        "b4D63uav": "20",
        "NW3CIk2A": "0",
        "P_SCENE_ID": "0",
        "t5R47iwj": "0",
        "P_PRIORITY": "0",
        "P_SCHEDULE_ID": "800044",
        "P_NEED_SWITCH_INFO": "0",
        "P_HIDE_SWITCH_INFO": "0"
    },
    {
        "v80VfcXr": "2046",
        "b4D63uav": "20",
        "NW3CIk2A": "0",
        "P_SCENE_ID": "0",
        "t5R47iwj": "0",
        "P_PRIORITY": "0",
        "P_SCHEDULE_ID": "800045",
        "P_NEED_SWITCH_INFO": "0",
        "P_HIDE_SWITCH_INFO": "0"
    },
    {
        "v80VfcXr": "2047",
        "b4D63uav": "20",
        "NW3CIk2A": "0",
        "P_SCENE_ID": "0",
        "t5R47iwj": "0",
        "P_PRIORITY": "0",
        "P_SCHEDULE_ID": "800046",
        "P_NEED_SWITCH_INFO": "0",
        "P_HIDE_SWITCH_INFO": "0"
    },
    {
        "v80VfcXr": "2048",
        "b4D63uav": "20",
        "NW3CIk2A": "0",
        "P_SCENE_ID": "0",
        "t5R47iwj": "0",
        "P_PRIORITY": "0",
        "P_SCHEDULE_ID": "800047",
        "P_NEED_SWITCH_INFO": "0",
        "P_HIDE_SWITCH_INFO": "0"
    },
    {
        "v80VfcXr": "2049",
        "b4D63uav": "20",
        "NW3CIk2A": "0",
        "P_SCENE_ID": "0",
        "t5R47iwj": "0",
        "P_PRIORITY": "0",
        "P_SCHEDULE_ID": "800048",
        "P_NEED_SWITCH_INFO": "0",
        "P_HIDE_SWITCH_INFO": "0"
    },
    {
        "v80VfcXr": "2050",
        "b4D63uav": "20",
        "NW3CIk2A": "0",
        "P_SCENE_ID": "0",
        "t5R47iwj": "0",
        "P_PRIORITY": "0",
        "P_SCHEDULE_ID": "800049",
        "P_NEED_SWITCH_INFO": "0",
        "P_HIDE_SWITCH_INFO": "0"
    },
    {
        "v80VfcXr": "2051",
        "b4D63uav": "20",
        "NW3CIk2A": "0",
        "P_SCENE_ID": "0",
        "t5R47iwj": "0",
        "P_PRIORITY": "0",
        "P_SCHEDULE_ID": "800050",
        "P_NEED_SWITCH_INFO": "0",
        "P_HIDE_SWITCH_INFO": "0"
    },
    {
        "v80VfcXr": "2052",
        "b4D63uav": "20",
        "NW3CIk2A": "0",
        "P_SCENE_ID": "0",
        "t5R47iwj": "0",
        "P_PRIORITY": "0",
        "P_SCHEDULE_ID": "800051",
        "P_NEED_SWITCH_INFO": "0",
        "P_HIDE_SWITCH_INFO": "0"
    },
    {
        "v80VfcXr": "2053",
        "b4D63uav": "20",
        "NW3CIk2A": "0",
        "P_SCENE_ID": "0",
        "t5R47iwj": "0",
        "P_PRIORITY": "0",
        "P_SCHEDULE_ID": "800052",
        "P_NEED_SWITCH_INFO": "0",
        "P_HIDE_SWITCH_INFO": "0"
    },
    {
        "v80VfcXr": "2054",
        "b4D63uav": "20",
        "NW3CIk2A": "0",
        "P_SCENE_ID": "0",
        "t5R47iwj": "0",
        "P_PRIORITY": "0",
        "P_SCHEDULE_ID": "800053",
        "P_NEED_SWITCH_INFO": "0",
        "P_HIDE_SWITCH_INFO": "0"
    },
    {
        "v80VfcXr": "2055",
        "b4D63uav": "20",
        "NW3CIk2A": "0",
        "P_SCENE_ID": "0",
        "t5R47iwj": "0",
        "P_PRIORITY": "0",
        "P_SCHEDULE_ID": "800054",
        "P_NEED_SWITCH_INFO": "0",
        "P_HIDE_SWITCH_INFO": "0"
    },
    {
        "v80VfcXr": "2056",
        "b4D63uav": "20",
        "NW3CIk2A": "0",
        "P_SCENE_ID": "0",
        "t5R47iwj": "0",
        "P_PRIORITY": "0",
        "P_SCHEDULE_ID": "800055",
        "P_NEED_SWITCH_INFO": "0",
        "P_HIDE_SWITCH_INFO": "0"
    },
    {
        "v80VfcXr": "2057",
        "b4D63uav": "20",
        "NW3CIk2A": "0",
        "P_SCENE_ID": "0",
        "t5R47iwj": "0",
        "P_PRIORITY": "0",
        "P_SCHEDULE_ID": "800056",
        "P_NEED_SWITCH_INFO": "0",
        "P_HIDE_SWITCH_INFO": "0"
    },
    {
        "v80VfcXr": "2058",
        "b4D63uav": "20",
        "NW3CIk2A": "0",
        "P_SCENE_ID": "0",
        "t5R47iwj": "0",
        "P_PRIORITY": "0",
        "P_SCHEDULE_ID": "800057",
        "P_NEED_SWITCH_INFO": "0",
        "P_HIDE_SWITCH_INFO": "0"
    },
    {
        "v80VfcXr": "2059",
        "b4D63uav": "20",
        "NW3CIk2A": "0",
        "P_SCENE_ID": "0",
        "t5R47iwj": "0",
        "P_PRIORITY": "0",
        "P_SCHEDULE_ID": "800058",
        "P_NEED_SWITCH_INFO": "0",
        "P_HIDE_SWITCH_INFO": "0"
    },
    {
        "v80VfcXr": "2060",
        "b4D63uav": "20",
        "NW3CIk2A": "0",
        "P_SCENE_ID": "0",
        "t5R47iwj": "0",
        "P_PRIORITY": "0",
        "P_SCHEDULE_ID": "800059",
        "P_NEED_SWITCH_INFO": "0",
        "P_HIDE_SWITCH_INFO": "0"
    },
    {
        "v80VfcXr": "2061",
        "b4D63uav": "20",
        "NW3CIk2A": "0",
        "P_SCENE_ID": "0",
        "t5R47iwj": "0",
        "P_PRIORITY": "0",
        "P_SCHEDULE_ID": "800060",
        "P_NEED_SWITCH_INFO": "0",
        "P_HIDE_SWITCH_INFO": "0"
    },
    {
        "v80VfcXr": "2062",
        "b4D63uav": "20",
        "NW3CIk2A": "0",
        "P_SCENE_ID": "0",
        "t5R47iwj": "0",
        "P_PRIORITY": "0",
        "P_SCHEDULE_ID": "800061",
        "P_NEED_SWITCH_INFO": "0",
        "P_HIDE_SWITCH_INFO": "0"
    },
    {
        "v80VfcXr": "2063",
        "b4D63uav": "20",
        "NW3CIk2A": "0",
        "P_SCENE_ID": "0",
        "t5R47iwj": "0",
        "P_PRIORITY": "0",
        "P_SCHEDULE_ID": "800062",
        "P_NEED_SWITCH_INFO": "0",
        "P_HIDE_SWITCH_INFO": "0"
    },
    {
        "v80VfcXr": "2064",
        "b4D63uav": "20",
        "NW3CIk2A": "0",
        "P_SCENE_ID": "0",
        "t5R47iwj": "0",
        "P_PRIORITY": "0",
        "P_SCHEDULE_ID": "800063",
        "P_NEED_SWITCH_INFO": "0",
        "P_HIDE_SWITCH_INFO": "0"
    },
    {
        "v80VfcXr": "2065",
        "b4D63uav": "20",
        "NW3CIk2A": "0",
        "P_SCENE_ID": "0",
        "t5R47iwj": "0",
        "P_PRIORITY": "0",
        "P_SCHEDULE_ID": "800064",
        "P_NEED_SWITCH_INFO": "0",
        "P_HIDE_SWITCH_INFO": "0"
    },
    {
        "v80VfcXr": "2066",
        "b4D63uav": "20",
        "NW3CIk2A": "0",
        "P_SCENE_ID": "0",
        "t5R47iwj": "0",
        "P_PRIORITY": "0",
        "P_SCHEDULE_ID": "800065",
        "P_NEED_SWITCH_INFO": "0",
        "P_HIDE_SWITCH_INFO": "0"
    },
    {
        "v80VfcXr": "2067",
        "b4D63uav": "20",
        "NW3CIk2A": "0",
        "P_SCENE_ID": "0",
        "t5R47iwj": "0",
        "P_PRIORITY": "0",
        "P_SCHEDULE_ID": "800066",
        "P_NEED_SWITCH_INFO": "0",
        "P_HIDE_SWITCH_INFO": "0"
    },
    {
        "v80VfcXr": "2068",
        "b4D63uav": "20",
        "NW3CIk2A": "0",
        "P_SCENE_ID": "0",
        "t5R47iwj": "0",
        "P_PRIORITY": "0",
        "P_SCHEDULE_ID": "800067",
        "P_NEED_SWITCH_INFO": "0",
        "P_HIDE_SWITCH_INFO": "0"
    },
    {
        "v80VfcXr": "2069",
        "b4D63uav": "20",
        "NW3CIk2A": "0",
        "P_SCENE_ID": "0",
        "t5R47iwj": "0",
        "P_PRIORITY": "0",
        "P_SCHEDULE_ID": "800068",
        "P_NEED_SWITCH_INFO": "0",
        "P_HIDE_SWITCH_INFO": "0"
    },
    {
        "v80VfcXr": "2070",
        "b4D63uav": "20",
        "NW3CIk2A": "0",
        "P_SCENE_ID": "0",
        "t5R47iwj": "0",
        "P_PRIORITY": "0",
        "P_SCHEDULE_ID": "800069",
        "P_NEED_SWITCH_INFO": "0",
        "P_HIDE_SWITCH_INFO": "0"
    },
    {
        "v80VfcXr": "2071",
        "b4D63uav": "20",
        "NW3CIk2A": "0",
        "P_SCENE_ID": "0",
        "t5R47iwj": "0",
        "P_PRIORITY": "0",
        "P_SCHEDULE_ID": "800070",
        "P_NEED_SWITCH_INFO": "0",
        "P_HIDE_SWITCH_INFO": "0"
    },
    {
        "v80VfcXr": "2072",
        "b4D63uav": "20",
        "NW3CIk2A": "0",
        "P_SCENE_ID": "0",
        "t5R47iwj": "0",
        "P_PRIORITY": "0",
        "P_SCHEDULE_ID": "800071",
        "P_NEED_SWITCH_INFO": "0",
        "P_HIDE_SWITCH_INFO": "0"
    },
    {
        "v80VfcXr": "2073",
        "b4D63uav": "20",
        "NW3CIk2A": "0",
        "P_SCENE_ID": "0",
        "t5R47iwj": "0",
        "P_PRIORITY": "0",
        "P_SCHEDULE_ID": "800072",
        "P_NEED_SWITCH_INFO": "0",
        "P_HIDE_SWITCH_INFO": "0"
    },
    {
        "v80VfcXr": "2074",
        "b4D63uav": "20",
        "NW3CIk2A": "0",
        "P_SCENE_ID": "0",
        "t5R47iwj": "0",
        "P_PRIORITY": "0",
        "P_SCHEDULE_ID": "800073",
        "P_NEED_SWITCH_INFO": "0",
        "P_HIDE_SWITCH_INFO": "0"
    },
    {
        "v80VfcXr": "2075",
        "b4D63uav": "20",
        "NW3CIk2A": "0",
        "P_SCENE_ID": "0",
        "t5R47iwj": "0",
        "P_PRIORITY": "0",
        "P_SCHEDULE_ID": "800074",
        "P_NEED_SWITCH_INFO": "0",
        "P_HIDE_SWITCH_INFO": "0"
    },
    {
        "v80VfcXr": "2076",
        "b4D63uav": "20",
        "NW3CIk2A": "0",
        "P_SCENE_ID": "0",
        "t5R47iwj": "0",
        "P_PRIORITY": "0",
        "P_SCHEDULE_ID": "800075",
        "P_NEED_SWITCH_INFO": "0",
        "P_HIDE_SWITCH_INFO": "0"
    },
    {
        "v80VfcXr": "2077",
        "b4D63uav": "20",
        "NW3CIk2A": "0",
        "P_SCENE_ID": "0",
        "t5R47iwj": "0",
        "P_PRIORITY": "0",
        "P_SCHEDULE_ID": "800076",
        "P_NEED_SWITCH_INFO": "0",
        "P_HIDE_SWITCH_INFO": "0"
    },
    {
        "v80VfcXr": "2078",
        "b4D63uav": "20",
        "NW3CIk2A": "0",
        "P_SCENE_ID": "0",
        "t5R47iwj": "0",
        "P_PRIORITY": "0",
        "P_SCHEDULE_ID": "800077",
        "P_NEED_SWITCH_INFO": "0",
        "P_HIDE_SWITCH_INFO": "0"
    },
    {
        "v80VfcXr": "2079",
        "b4D63uav": "20",
        "NW3CIk2A": "0",
        "P_SCENE_ID": "0",
        "t5R47iwj": "0",
        "P_PRIORITY": "0",
        "P_SCHEDULE_ID": "800078",
        "P_NEED_SWITCH_INFO": "0",
        "P_HIDE_SWITCH_INFO": "0"
    },
    {
        "v80VfcXr": "2080",
        "b4D63uav": "20",
        "NW3CIk2A": "0",
        "P_SCENE_ID": "0",
        "t5R47iwj": "0",
        "P_PRIORITY": "0",
        "P_SCHEDULE_ID": "800079",
        "P_NEED_SWITCH_INFO": "0",
        "P_HIDE_SWITCH_INFO": "0"
    },
    {
        "v80VfcXr": "2081",
        "b4D63uav": "20",
        "NW3CIk2A": "0",
        "P_SCENE_ID": "0",
        "t5R47iwj": "0",
        "P_PRIORITY": "0",
        "P_SCHEDULE_ID": "800080",
        "P_NEED_SWITCH_INFO": "0",
        "P_HIDE_SWITCH_INFO": "0"
    },
    {
        "v80VfcXr": "2082",
        "b4D63uav": "20",
        "NW3CIk2A": "0",
        "P_SCENE_ID": "0",
        "t5R47iwj": "0",
        "P_PRIORITY": "0",
        "P_SCHEDULE_ID": "800081",
        "P_NEED_SWITCH_INFO": "0",
        "P_HIDE_SWITCH_INFO": "0"
    },
    {
        "v80VfcXr": "2083",
        "b4D63uav": "20",
        "NW3CIk2A": "0",
        "P_SCENE_ID": "0",
        "t5R47iwj": "0",
        "P_PRIORITY": "0",
        "P_SCHEDULE_ID": "800082",
        "P_NEED_SWITCH_INFO": "0",
        "P_HIDE_SWITCH_INFO": "0"
    },
    {
        "v80VfcXr": "2084",
        "b4D63uav": "20",
        "NW3CIk2A": "0",
        "P_SCENE_ID": "0",
        "t5R47iwj": "0",
        "P_PRIORITY": "0",
        "P_SCHEDULE_ID": "800083",
        "P_NEED_SWITCH_INFO": "0",
        "P_HIDE_SWITCH_INFO": "0"
    },
    {
        "v80VfcXr": "2085",
        "b4D63uav": "20",
        "NW3CIk2A": "0",
        "P_SCENE_ID": "0",
        "t5R47iwj": "0",
        "P_PRIORITY": "0",
        "P_SCHEDULE_ID": "800084",
        "P_NEED_SWITCH_INFO": "0",
        "P_HIDE_SWITCH_INFO": "0"
    },
    {
        "v80VfcXr": "2086",
        "b4D63uav": "20",
        "NW3CIk2A": "0",
        "P_SCENE_ID": "0",
        "t5R47iwj": "0",
        "P_PRIORITY": "0",
        "P_SCHEDULE_ID": "800085",
        "P_NEED_SWITCH_INFO": "0",
        "P_HIDE_SWITCH_INFO": "0"
    },
    {
        "v80VfcXr": "2087",
        "b4D63uav": "20",
        "NW3CIk2A": "0",
        "P_SCENE_ID": "0",
        "t5R47iwj": "0",
        "P_PRIORITY": "0",
        "P_SCHEDULE_ID": "800086",
        "P_NEED_SWITCH_INFO": "0",
        "P_HIDE_SWITCH_INFO": "0"
    },
    {
        "v80VfcXr": "2088",
        "b4D63uav": "20",
        "NW3CIk2A": "0",
        "P_SCENE_ID": "0",
        "t5R47iwj": "0",
        "P_PRIORITY": "0",
        "P_SCHEDULE_ID": "800087",
        "P_NEED_SWITCH_INFO": "0",
        "P_HIDE_SWITCH_INFO": "0"
    },
    {
        "v80VfcXr": "2089",
        "b4D63uav": "20",
        "NW3CIk2A": "0",
        "P_SCENE_ID": "0",
        "t5R47iwj": "0",
        "P_PRIORITY": "0",
        "P_SCHEDULE_ID": "800088",
        "P_NEED_SWITCH_INFO": "0",
        "P_HIDE_SWITCH_INFO": "0"
    },
    {
        "v80VfcXr": "2090",
        "b4D63uav": "20",
        "NW3CIk2A": "0",
        "P_SCENE_ID": "0",
        "t5R47iwj": "0",
        "P_PRIORITY": "0",
        "P_SCHEDULE_ID": "800089",
        "P_NEED_SWITCH_INFO": "0",
        "P_HIDE_SWITCH_INFO": "0"
    },
    {
        "v80VfcXr": "2091",
        "b4D63uav": "20",
        "NW3CIk2A": "0",
        "P_SCENE_ID": "0",
        "t5R47iwj": "0",
        "P_PRIORITY": "0",
        "P_SCHEDULE_ID": "800090",
        "P_NEED_SWITCH_INFO": "0",
        "P_HIDE_SWITCH_INFO": "0"
    },
    {
        "v80VfcXr": "2092",
        "b4D63uav": "20",
        "NW3CIk2A": "0",
        "P_SCENE_ID": "0",
        "t5R47iwj": "0",
        "P_PRIORITY": "0",
        "P_SCHEDULE_ID": "800091",
        "P_NEED_SWITCH_INFO": "0",
        "P_HIDE_SWITCH_INFO": "0"
    },
    {
        "v80VfcXr": "2093",
        "b4D63uav": "20",
        "NW3CIk2A": "0",
        "P_SCENE_ID": "0",
        "t5R47iwj": "0",
        "P_PRIORITY": "0",
        "P_SCHEDULE_ID": "800092",
        "P_NEED_SWITCH_INFO": "0",
        "P_HIDE_SWITCH_INFO": "0"
    },
    {
        "v80VfcXr": "2094",
        "b4D63uav": "20",
        "NW3CIk2A": "0",
        "P_SCENE_ID": "0",
        "t5R47iwj": "0",
        "P_PRIORITY": "0",
        "P_SCHEDULE_ID": "800093",
        "P_NEED_SWITCH_INFO": "0",
        "P_HIDE_SWITCH_INFO": "0"
    },
    {
        "v80VfcXr": "2095",
        "b4D63uav": "20",
        "NW3CIk2A": "0",
        "P_SCENE_ID": "0",
        "t5R47iwj": "0",
        "P_PRIORITY": "0",
        "P_SCHEDULE_ID": "800094",
        "P_NEED_SWITCH_INFO": "0",
        "P_HIDE_SWITCH_INFO": "0"
    },
    {
        "v80VfcXr": "2096",
        "b4D63uav": "20",
        "NW3CIk2A": "0",
        "P_SCENE_ID": "0",
        "t5R47iwj": "0",
        "P_PRIORITY": "0",
        "P_SCHEDULE_ID": "800095",
        "P_NEED_SWITCH_INFO": "0",
        "P_HIDE_SWITCH_INFO": "0"
    },
    {
        "v80VfcXr": "2097",
        "b4D63uav": "20",
        "NW3CIk2A": "0",
        "P_SCENE_ID": "0",
        "t5R47iwj": "0",
        "P_PRIORITY": "0",
        "P_SCHEDULE_ID": "800096",
        "P_NEED_SWITCH_INFO": "0",
        "P_HIDE_SWITCH_INFO": "0"
    },
    {
        "v80VfcXr": "2098",
        "b4D63uav": "20",
        "NW3CIk2A": "0",
        "P_SCENE_ID": "0",
        "t5R47iwj": "0",
        "P_PRIORITY": "0",
        "P_SCHEDULE_ID": "800097",
        "P_NEED_SWITCH_INFO": "0",
        "P_HIDE_SWITCH_INFO": "0"
    },
    {
        "v80VfcXr": "2099",
        "b4D63uav": "20",
        "NW3CIk2A": "0",
        "P_SCENE_ID": "0",
        "t5R47iwj": "0",
        "P_PRIORITY": "0",
        "P_SCHEDULE_ID": "800098",
        "P_NEED_SWITCH_INFO": "0",
        "P_HIDE_SWITCH_INFO": "0"
    },
    {
        "v80VfcXr": "2100",
        "b4D63uav": "20",
        "NW3CIk2A": "0",
        "P_SCENE_ID": "0",
        "t5R47iwj": "0",
        "P_PRIORITY": "0",
        "P_SCHEDULE_ID": "800099",
        "P_NEED_SWITCH_INFO": "0",
        "P_HIDE_SWITCH_INFO": "0"
    },
    {
        "v80VfcXr": "2101",
        "b4D63uav": "20",
        "NW3CIk2A": "0",
        "P_SCENE_ID": "0",
        "t5R47iwj": "0",
        "P_PRIORITY": "0",
        "P_SCHEDULE_ID": "800100",
        "P_NEED_SWITCH_INFO": "0",
        "P_HIDE_SWITCH_INFO": "0"
    },
    {
        "v80VfcXr": "2102",
        "b4D63uav": "20",
        "NW3CIk2A": "0",
        "P_SCENE_ID": "0",
        "t5R47iwj": "0",
        "P_PRIORITY": "0",
        "P_SCHEDULE_ID": "800101",
        "P_NEED_SWITCH_INFO": "0",
        "P_HIDE_SWITCH_INFO": "0"
    },
    {
        "v80VfcXr": "2103",
        "b4D63uav": "20",
        "NW3CIk2A": "0",
        "P_SCENE_ID": "0",
        "t5R47iwj": "0",
        "P_PRIORITY": "0",
        "P_SCHEDULE_ID": "800102",
        "P_NEED_SWITCH_INFO": "0",
        "P_HIDE_SWITCH_INFO": "0"
    },
    {
        "v80VfcXr": "2104",
        "b4D63uav": "20",
        "NW3CIk2A": "0",
        "P_SCENE_ID": "0",
        "t5R47iwj": "0",
        "P_PRIORITY": "0",
        "P_SCHEDULE_ID": "800103",
        "P_NEED_SWITCH_INFO": "0",
        "P_HIDE_SWITCH_INFO": "0"
    },
    {
        "v80VfcXr": "2105",
        "b4D63uav": "20",
        "NW3CIk2A": "0",
        "P_SCENE_ID": "0",
        "t5R47iwj": "0",
        "P_PRIORITY": "0",
        "P_SCHEDULE_ID": "800104",
        "P_NEED_SWITCH_INFO": "0",
        "P_HIDE_SWITCH_INFO": "0"
    },
    {
        "v80VfcXr": "2106",
        "b4D63uav": "20",
        "NW3CIk2A": "0",
        "P_SCENE_ID": "0",
        "t5R47iwj": "0",
        "P_PRIORITY": "0",
        "P_SCHEDULE_ID": "800105",
        "P_NEED_SWITCH_INFO": "0",
        "P_HIDE_SWITCH_INFO": "0"
    },
    {
        "v80VfcXr": "2107",
        "b4D63uav": "20",
        "NW3CIk2A": "0",
        "P_SCENE_ID": "0",
        "t5R47iwj": "0",
        "P_PRIORITY": "0",
        "P_SCHEDULE_ID": "800106",
        "P_NEED_SWITCH_INFO": "0",
        "P_HIDE_SWITCH_INFO": "0"
    },
    {
        "v80VfcXr": "2108",
        "b4D63uav": "20",
        "NW3CIk2A": "0",
        "P_SCENE_ID": "0",
        "t5R47iwj": "0",
        "P_PRIORITY": "0",
        "P_SCHEDULE_ID": "800107",
        "P_NEED_SWITCH_INFO": "0",
        "P_HIDE_SWITCH_INFO": "0"
    },
    {
        "v80VfcXr": "2109",
        "b4D63uav": "20",
        "NW3CIk2A": "0",
        "P_SCENE_ID": "0",
        "t5R47iwj": "0",
        "P_PRIORITY": "0",
        "P_SCHEDULE_ID": "800108",
        "P_NEED_SWITCH_INFO": "0",
        "P_HIDE_SWITCH_INFO": "0"
    },
    {
        "v80VfcXr": "2110",
        "b4D63uav": "20",
        "NW3CIk2A": "0",
        "P_SCENE_ID": "0",
        "t5R47iwj": "0",
        "P_PRIORITY": "0",
        "P_SCHEDULE_ID": "800109",
        "P_NEED_SWITCH_INFO": "0",
        "P_HIDE_SWITCH_INFO": "0"
    },
    {
        "v80VfcXr": "2111",
        "b4D63uav": "20",
        "NW3CIk2A": "0",
        "P_SCENE_ID": "0",
        "t5R47iwj": "0",
        "P_PRIORITY": "0",
        "P_SCHEDULE_ID": "800110",
        "P_NEED_SWITCH_INFO": "0",
        "P_HIDE_SWITCH_INFO": "0"
    },
    {
        "v80VfcXr": "2112",
        "b4D63uav": "20",
        "NW3CIk2A": "0",
        "P_SCENE_ID": "0",
        "t5R47iwj": "0",
        "P_PRIORITY": "0",
        "P_SCHEDULE_ID": "800111",
        "P_NEED_SWITCH_INFO": "0",
        "P_HIDE_SWITCH_INFO": "0"
    },
    {
        "v80VfcXr": "2113",
        "b4D63uav": "20",
        "NW3CIk2A": "0",
        "P_SCENE_ID": "0",
        "t5R47iwj": "0",
        "P_PRIORITY": "0",
        "P_SCHEDULE_ID": "800112",
        "P_NEED_SWITCH_INFO": "0",
        "P_HIDE_SWITCH_INFO": "0"
    },
    {
        "v80VfcXr": "2114",
        "b4D63uav": "20",
        "NW3CIk2A": "0",
        "P_SCENE_ID": "0",
        "t5R47iwj": "0",
        "P_PRIORITY": "0",
        "P_SCHEDULE_ID": "800113",
        "P_NEED_SWITCH_INFO": "0",
        "P_HIDE_SWITCH_INFO": "0"
    },
    {
        "v80VfcXr": "2115",
        "b4D63uav": "20",
        "NW3CIk2A": "0",
        "P_SCENE_ID": "0",
        "t5R47iwj": "0",
        "P_PRIORITY": "0",
        "P_SCHEDULE_ID": "800114",
        "P_NEED_SWITCH_INFO": "0",
        "P_HIDE_SWITCH_INFO": "0"
    },
    {
        "v80VfcXr": "2116",
        "b4D63uav": "20",
        "NW3CIk2A": "0",
        "P_SCENE_ID": "0",
        "t5R47iwj": "0",
        "P_PRIORITY": "0",
        "P_SCHEDULE_ID": "800115",
        "P_NEED_SWITCH_INFO": "0",
        "P_HIDE_SWITCH_INFO": "0"
    },
    {
        "v80VfcXr": "2117",
        "b4D63uav": "20",
        "NW3CIk2A": "0",
        "P_SCENE_ID": "0",
        "t5R47iwj": "0",
        "P_PRIORITY": "0",
        "P_SCHEDULE_ID": "800116",
        "P_NEED_SWITCH_INFO": "0",
        "P_HIDE_SWITCH_INFO": "0"
    },
    {
        "v80VfcXr": "2118",
        "b4D63uav": "20",
        "NW3CIk2A": "0",
        "P_SCENE_ID": "0",
        "t5R47iwj": "0",
        "P_PRIORITY": "0",
        "P_SCHEDULE_ID": "800117",
        "P_NEED_SWITCH_INFO": "0",
        "P_HIDE_SWITCH_INFO": "0"
    },
    {
        "v80VfcXr": "2119",
        "b4D63uav": "20",
        "NW3CIk2A": "0",
        "P_SCENE_ID": "0",
        "t5R47iwj": "0",
        "P_PRIORITY": "0",
        "P_SCHEDULE_ID": "800118",
        "P_NEED_SWITCH_INFO": "0",
        "P_HIDE_SWITCH_INFO": "0"
    },
    {
        "v80VfcXr": "2120",
        "b4D63uav": "20",
        "NW3CIk2A": "0",
        "P_SCENE_ID": "0",
        "t5R47iwj": "0",
        "P_PRIORITY": "0",
        "P_SCHEDULE_ID": "800119",
        "P_NEED_SWITCH_INFO": "0",
        "P_HIDE_SWITCH_INFO": "0"
    },
    {
        "v80VfcXr": "2121",
        "b4D63uav": "20",
        "NW3CIk2A": "0",
        "P_SCENE_ID": "0",
        "t5R47iwj": "0",
        "P_PRIORITY": "0",
        "P_SCHEDULE_ID": "800120",
        "P_NEED_SWITCH_INFO": "0",
        "P_HIDE_SWITCH_INFO": "0"
    },
    {
        "v80VfcXr": "2122",
        "b4D63uav": "20",
        "NW3CIk2A": "0",
        "P_SCENE_ID": "0",
        "t5R47iwj": "0",
        "P_PRIORITY": "0",
        "P_SCHEDULE_ID": "800121",
        "P_NEED_SWITCH_INFO": "0",
        "P_HIDE_SWITCH_INFO": "0"
    },
    {
        "v80VfcXr": "2123",
        "b4D63uav": "20",
        "NW3CIk2A": "0",
        "P_SCENE_ID": "0",
        "t5R47iwj": "0",
        "P_PRIORITY": "0",
        "P_SCHEDULE_ID": "800122",
        "P_NEED_SWITCH_INFO": "0",
        "P_HIDE_SWITCH_INFO": "0"
    },
    {
        "v80VfcXr": "2124",
        "b4D63uav": "20",
        "NW3CIk2A": "0",
        "P_SCENE_ID": "0",
        "t5R47iwj": "0",
        "P_PRIORITY": "0",
        "P_SCHEDULE_ID": "800123",
        "P_NEED_SWITCH_INFO": "0",
        "P_HIDE_SWITCH_INFO": "0"
    },
    {
        "v80VfcXr": "2125",
        "b4D63uav": "20",
        "NW3CIk2A": "0",
        "P_SCENE_ID": "0",
        "t5R47iwj": "0",
        "P_PRIORITY": "0",
        "P_SCHEDULE_ID": "800124",
        "P_NEED_SWITCH_INFO": "0",
        "P_HIDE_SWITCH_INFO": "0"
    },
    {
        "v80VfcXr": "2126",
        "b4D63uav": "20",
        "NW3CIk2A": "0",
        "P_SCENE_ID": "0",
        "t5R47iwj": "0",
        "P_PRIORITY": "0",
        "P_SCHEDULE_ID": "800125",
        "P_NEED_SWITCH_INFO": "0",
        "P_HIDE_SWITCH_INFO": "0"
    },
    {
        "v80VfcXr": "2127",
        "b4D63uav": "20",
        "NW3CIk2A": "0",
        "P_SCENE_ID": "0",
        "t5R47iwj": "0",
        "P_PRIORITY": "0",
        "P_SCHEDULE_ID": "800126",
        "P_NEED_SWITCH_INFO": "0",
        "P_HIDE_SWITCH_INFO": "0"
    },
    {
        "v80VfcXr": "2128",
        "b4D63uav": "20",
        "NW3CIk2A": "0",
        "P_SCENE_ID": "0",
        "t5R47iwj": "0",
        "P_PRIORITY": "0",
        "P_SCHEDULE_ID": "800127",
        "P_NEED_SWITCH_INFO": "0",
        "P_HIDE_SWITCH_INFO": "0"
    },
    {
        "v80VfcXr": "2129",
        "b4D63uav": "20",
        "NW3CIk2A": "0",
        "P_SCENE_ID": "0",
        "t5R47iwj": "0",
        "P_PRIORITY": "0",
        "P_SCHEDULE_ID": "800128",
        "P_NEED_SWITCH_INFO": "0",
        "P_HIDE_SWITCH_INFO": "0"
    },
    {
        "v80VfcXr": "2130",
        "b4D63uav": "20",
        "NW3CIk2A": "0",
        "P_SCENE_ID": "0",
        "t5R47iwj": "0",
        "P_PRIORITY": "0",
        "P_SCHEDULE_ID": "800129",
        "P_NEED_SWITCH_INFO": "0",
        "P_HIDE_SWITCH_INFO": "0"
    },
    {
        "v80VfcXr": "2131",
        "b4D63uav": "20",
        "NW3CIk2A": "0",
        "P_SCENE_ID": "0",
        "t5R47iwj": "0",
        "P_PRIORITY": "0",
        "P_SCHEDULE_ID": "800130",
        "P_NEED_SWITCH_INFO": "0",
        "P_HIDE_SWITCH_INFO": "0"
    },
    {
        "v80VfcXr": "2132",
        "b4D63uav": "20",
        "NW3CIk2A": "0",
        "P_SCENE_ID": "0",
        "t5R47iwj": "0",
        "P_PRIORITY": "0",
        "P_SCHEDULE_ID": "800131",
        "P_NEED_SWITCH_INFO": "0",
        "P_HIDE_SWITCH_INFO": "0"
    },
    {
        "v80VfcXr": "2133",
        "b4D63uav": "20",
        "NW3CIk2A": "0",
        "P_SCENE_ID": "0",
        "t5R47iwj": "0",
        "P_PRIORITY": "0",
        "P_SCHEDULE_ID": "800132",
        "P_NEED_SWITCH_INFO": "0",
        "P_HIDE_SWITCH_INFO": "0"
    },
    {
        "v80VfcXr": "2134",
        "b4D63uav": "20",
        "NW3CIk2A": "0",
        "P_SCENE_ID": "0",
        "t5R47iwj": "0",
        "P_PRIORITY": "0",
        "P_SCHEDULE_ID": "800133",
        "P_NEED_SWITCH_INFO": "0",
        "P_HIDE_SWITCH_INFO": "0"
    },
    {
        "v80VfcXr": "2135",
        "b4D63uav": "20",
        "NW3CIk2A": "0",
        "P_SCENE_ID": "0",
        "t5R47iwj": "0",
        "P_PRIORITY": "0",
        "P_SCHEDULE_ID": "800134",
        "P_NEED_SWITCH_INFO": "0",
        "P_HIDE_SWITCH_INFO": "0"
    },
    {
        "v80VfcXr": "2136",
        "b4D63uav": "20",
        "NW3CIk2A": "0",
        "P_SCENE_ID": "0",
        "t5R47iwj": "0",
        "P_PRIORITY": "0",
        "P_SCHEDULE_ID": "800135",
        "P_NEED_SWITCH_INFO": "0",
        "P_HIDE_SWITCH_INFO": "0"
    },
    {
        "v80VfcXr": "2137",
        "b4D63uav": "20",
        "NW3CIk2A": "0",
        "P_SCENE_ID": "0",
        "t5R47iwj": "0",
        "P_PRIORITY": "0",
        "P_SCHEDULE_ID": "800136",
        "P_NEED_SWITCH_INFO": "0",
        "P_HIDE_SWITCH_INFO": "0"
    },
    {
        "v80VfcXr": "2138",
        "b4D63uav": "20",
        "NW3CIk2A": "0",
        "P_SCENE_ID": "0",
        "t5R47iwj": "0",
        "P_PRIORITY": "0",
        "P_SCHEDULE_ID": "800137",
        "P_NEED_SWITCH_INFO": "0",
        "P_HIDE_SWITCH_INFO": "0"
    },
    {
        "v80VfcXr": "2139",
        "b4D63uav": "20",
        "NW3CIk2A": "0",
        "P_SCENE_ID": "0",
        "t5R47iwj": "0",
        "P_PRIORITY": "0",
        "P_SCHEDULE_ID": "800138",
        "P_NEED_SWITCH_INFO": "0",
        "P_HIDE_SWITCH_INFO": "0"
    },
    {
        "v80VfcXr": "2140",
        "b4D63uav": "20",
        "NW3CIk2A": "0",
        "P_SCENE_ID": "0",
        "t5R47iwj": "0",
        "P_PRIORITY": "0",
        "P_SCHEDULE_ID": "800139",
        "P_NEED_SWITCH_INFO": "0",
        "P_HIDE_SWITCH_INFO": "0"
    },
    {
        "v80VfcXr": "2141",
        "b4D63uav": "20",
        "NW3CIk2A": "0",
        "P_SCENE_ID": "0",
        "t5R47iwj": "0",
        "P_PRIORITY": "0",
        "P_SCHEDULE_ID": "800140",
        "P_NEED_SWITCH_INFO": "0",
        "P_HIDE_SWITCH_INFO": "0"
    },
    {
        "v80VfcXr": "2142",
        "b4D63uav": "20",
        "NW3CIk2A": "0",
        "P_SCENE_ID": "0",
        "t5R47iwj": "0",
        "P_PRIORITY": "0",
        "P_SCHEDULE_ID": "800141",
        "P_NEED_SWITCH_INFO": "0",
        "P_HIDE_SWITCH_INFO": "0"
    },
    {
        "v80VfcXr": "2143",
        "b4D63uav": "20",
        "NW3CIk2A": "0",
        "P_SCENE_ID": "0",
        "t5R47iwj": "0",
        "P_PRIORITY": "0",
        "P_SCHEDULE_ID": "800142",
        "P_NEED_SWITCH_INFO": "0",
        "P_HIDE_SWITCH_INFO": "0"
    },
    {
        "v80VfcXr": "2144",
        "b4D63uav": "20",
        "NW3CIk2A": "0",
        "P_SCENE_ID": "0",
        "t5R47iwj": "0",
        "P_PRIORITY": "0",
        "P_SCHEDULE_ID": "800143",
        "P_NEED_SWITCH_INFO": "0",
        "P_HIDE_SWITCH_INFO": "0"
    },
    {
        "v80VfcXr": "2145",
        "b4D63uav": "20",
        "NW3CIk2A": "0",
        "P_SCENE_ID": "0",
        "t5R47iwj": "0",
        "P_PRIORITY": "0",
        "P_SCHEDULE_ID": "800144",
        "P_NEED_SWITCH_INFO": "0",
        "P_HIDE_SWITCH_INFO": "0"
    },
    {
        "v80VfcXr": "2146",
        "b4D63uav": "20",
        "NW3CIk2A": "0",
        "P_SCENE_ID": "0",
        "t5R47iwj": "0",
        "P_PRIORITY": "0",
        "P_SCHEDULE_ID": "800145",
        "P_NEED_SWITCH_INFO": "0",
        "P_HIDE_SWITCH_INFO": "0"
    },
    {
        "v80VfcXr": "2147",
        "b4D63uav": "20",
        "NW3CIk2A": "0",
        "P_SCENE_ID": "0",
        "t5R47iwj": "0",
        "P_PRIORITY": "0",
        "P_SCHEDULE_ID": "800146",
        "P_NEED_SWITCH_INFO": "0",
        "P_HIDE_SWITCH_INFO": "0"
    },
    {
        "v80VfcXr": "2148",
        "b4D63uav": "20",
        "NW3CIk2A": "0",
        "P_SCENE_ID": "0",
        "t5R47iwj": "0",
        "P_PRIORITY": "0",
        "P_SCHEDULE_ID": "800147",
        "P_NEED_SWITCH_INFO": "0",
        "P_HIDE_SWITCH_INFO": "0"
    },
    {
        "v80VfcXr": "2149",
        "b4D63uav": "20",
        "NW3CIk2A": "0",
        "P_SCENE_ID": "0",
        "t5R47iwj": "0",
        "P_PRIORITY": "0",
        "P_SCHEDULE_ID": "800148",
        "P_NEED_SWITCH_INFO": "0",
        "P_HIDE_SWITCH_INFO": "0"
    },
    {
        "v80VfcXr": "2150",
        "b4D63uav": "20",
        "NW3CIk2A": "0",
        "P_SCENE_ID": "0",
        "t5R47iwj": "0",
        "P_PRIORITY": "0",
        "P_SCHEDULE_ID": "800149",
        "P_NEED_SWITCH_INFO": "0",
        "P_HIDE_SWITCH_INFO": "0"
    },
    {
        "v80VfcXr": "2151",
        "b4D63uav": "20",
        "NW3CIk2A": "0",
        "P_SCENE_ID": "0",
        "t5R47iwj": "0",
        "P_PRIORITY": "0",
        "P_SCHEDULE_ID": "800150",
        "P_NEED_SWITCH_INFO": "0",
        "P_HIDE_SWITCH_INFO": "0"
    },
    {
        "v80VfcXr": "2152",
        "b4D63uav": "20",
        "NW3CIk2A": "0",
        "P_SCENE_ID": "0",
        "t5R47iwj": "0",
        "P_PRIORITY": "0",
        "P_SCHEDULE_ID": "800151",
        "P_NEED_SWITCH_INFO": "0",
        "P_HIDE_SWITCH_INFO": "0"
    },
    {
        "v80VfcXr": "2153",
        "b4D63uav": "20",
        "NW3CIk2A": "0",
        "P_SCENE_ID": "0",
        "t5R47iwj": "0",
        "P_PRIORITY": "0",
        "P_SCHEDULE_ID": "800152",
        "P_NEED_SWITCH_INFO": "0",
        "P_HIDE_SWITCH_INFO": "0"
    },
    {
        "v80VfcXr": "2154",
        "b4D63uav": "20",
        "NW3CIk2A": "0",
        "P_SCENE_ID": "0",
        "t5R47iwj": "0",
        "P_PRIORITY": "0",
        "P_SCHEDULE_ID": "800153",
        "P_NEED_SWITCH_INFO": "0",
        "P_HIDE_SWITCH_INFO": "0"
    },
    {
        "v80VfcXr": "2155",
        "b4D63uav": "20",
        "NW3CIk2A": "0",
        "P_SCENE_ID": "0",
        "t5R47iwj": "0",
        "P_PRIORITY": "0",
        "P_SCHEDULE_ID": "800154",
        "P_NEED_SWITCH_INFO": "0",
        "P_HIDE_SWITCH_INFO": "0"
    },
    {
        "v80VfcXr": "2156",
        "b4D63uav": "20",
        "NW3CIk2A": "0",
        "P_SCENE_ID": "0",
        "t5R47iwj": "0",
        "P_PRIORITY": "0",
        "P_SCHEDULE_ID": "800155",
        "P_NEED_SWITCH_INFO": "0",
        "P_HIDE_SWITCH_INFO": "0"
    },
    {
        "v80VfcXr": "2157",
        "b4D63uav": "20",
        "NW3CIk2A": "0",
        "P_SCENE_ID": "0",
        "t5R47iwj": "0",
        "P_PRIORITY": "0",
        "P_SCHEDULE_ID": "800156",
        "P_NEED_SWITCH_INFO": "0",
        "P_HIDE_SWITCH_INFO": "0"
    },
    {
        "v80VfcXr": "2158",
        "b4D63uav": "20",
        "NW3CIk2A": "0",
        "P_SCENE_ID": "0",
        "t5R47iwj": "0",
        "P_PRIORITY": "0",
        "P_SCHEDULE_ID": "800157",
        "P_NEED_SWITCH_INFO": "0",
        "P_HIDE_SWITCH_INFO": "0"
    },
    {
        "v80VfcXr": "2159",
        "b4D63uav": "20",
        "NW3CIk2A": "0",
        "P_SCENE_ID": "0",
        "t5R47iwj": "0",
        "P_PRIORITY": "0",
        "P_SCHEDULE_ID": "800158",
        "P_NEED_SWITCH_INFO": "0",
        "P_HIDE_SWITCH_INFO": "0"
    },
    {
        "v80VfcXr": "2160",
        "b4D63uav": "20",
        "NW3CIk2A": "0",
        "P_SCENE_ID": "0",
        "t5R47iwj": "0",
        "P_PRIORITY": "0",
        "P_SCHEDULE_ID": "800159",
        "P_NEED_SWITCH_INFO": "0",
        "P_HIDE_SWITCH_INFO": "0"
    },
    {
        "v80VfcXr": "2161",
        "b4D63uav": "20",
        "NW3CIk2A": "0",
        "P_SCENE_ID": "0",
        "t5R47iwj": "0",
        "P_PRIORITY": "0",
        "P_SCHEDULE_ID": "800160",
        "P_NEED_SWITCH_INFO": "0",
        "P_HIDE_SWITCH_INFO": "0"
    },
    {
        "v80VfcXr": "2162",
        "b4D63uav": "20",
        "NW3CIk2A": "0",
        "P_SCENE_ID": "0",
        "t5R47iwj": "0",
        "P_PRIORITY": "0",
        "P_SCHEDULE_ID": "800161",
        "P_NEED_SWITCH_INFO": "0",
        "P_HIDE_SWITCH_INFO": "0"
    },
    {
        "v80VfcXr": "2163",
        "b4D63uav": "20",
        "NW3CIk2A": "0",
        "P_SCENE_ID": "0",
        "t5R47iwj": "0",
        "P_PRIORITY": "0",
        "P_SCHEDULE_ID": "800162",
        "P_NEED_SWITCH_INFO": "0",
        "P_HIDE_SWITCH_INFO": "0"
    },
    {
        "v80VfcXr": "2164",
        "b4D63uav": "20",
        "NW3CIk2A": "0",
        "P_SCENE_ID": "0",
        "t5R47iwj": "0",
        "P_PRIORITY": "0",
        "P_SCHEDULE_ID": "800163",
        "P_NEED_SWITCH_INFO": "0",
        "P_HIDE_SWITCH_INFO": "0"
    },
    {
        "v80VfcXr": "2165",
        "b4D63uav": "20",
        "NW3CIk2A": "0",
        "P_SCENE_ID": "0",
        "t5R47iwj": "0",
        "P_PRIORITY": "0",
        "P_SCHEDULE_ID": "800164",
        "P_NEED_SWITCH_INFO": "0",
        "P_HIDE_SWITCH_INFO": "0"
    },
    {
        "v80VfcXr": "2166",
        "b4D63uav": "20",
        "NW3CIk2A": "0",
        "P_SCENE_ID": "0",
        "t5R47iwj": "0",
        "P_PRIORITY": "0",
        "P_SCHEDULE_ID": "800165",
        "P_NEED_SWITCH_INFO": "0",
        "P_HIDE_SWITCH_INFO": "0"
    },
    {
        "v80VfcXr": "2167",
        "b4D63uav": "20",
        "NW3CIk2A": "0",
        "P_SCENE_ID": "0",
        "t5R47iwj": "0",
        "P_PRIORITY": "0",
        "P_SCHEDULE_ID": "800166",
        "P_NEED_SWITCH_INFO": "0",
        "P_HIDE_SWITCH_INFO": "0"
    },
    {
        "v80VfcXr": "2168",
        "b4D63uav": "20",
        "NW3CIk2A": "0",
        "P_SCENE_ID": "0",
        "t5R47iwj": "0",
        "P_PRIORITY": "0",
        "P_SCHEDULE_ID": "800167",
        "P_NEED_SWITCH_INFO": "0",
        "P_HIDE_SWITCH_INFO": "0"
    },
    {
        "v80VfcXr": "2169",
        "b4D63uav": "20",
        "NW3CIk2A": "0",
        "P_SCENE_ID": "0",
        "t5R47iwj": "0",
        "P_PRIORITY": "0",
        "P_SCHEDULE_ID": "800168",
        "P_NEED_SWITCH_INFO": "0",
        "P_HIDE_SWITCH_INFO": "0"
    },
    {
        "v80VfcXr": "2170",
        "b4D63uav": "20",
        "NW3CIk2A": "0",
        "P_SCENE_ID": "0",
        "t5R47iwj": "0",
        "P_PRIORITY": "0",
        "P_SCHEDULE_ID": "800169",
        "P_NEED_SWITCH_INFO": "0",
        "P_HIDE_SWITCH_INFO": "0"
    },
    {
        "v80VfcXr": "2171",
        "b4D63uav": "20",
        "NW3CIk2A": "0",
        "P_SCENE_ID": "0",
        "t5R47iwj": "0",
        "P_PRIORITY": "0",
        "P_SCHEDULE_ID": "800170",
        "P_NEED_SWITCH_INFO": "0",
        "P_HIDE_SWITCH_INFO": "0"
    },
    {
        "v80VfcXr": "2172",
        "b4D63uav": "20",
        "NW3CIk2A": "0",
        "P_SCENE_ID": "0",
        "t5R47iwj": "0",
        "P_PRIORITY": "0",
        "P_SCHEDULE_ID": "800171",
        "P_NEED_SWITCH_INFO": "0",
        "P_HIDE_SWITCH_INFO": "0"
    },
    {
        "v80VfcXr": "2173",
        "b4D63uav": "20",
        "NW3CIk2A": "0",
        "P_SCENE_ID": "0",
        "t5R47iwj": "0",
        "P_PRIORITY": "0",
        "P_SCHEDULE_ID": "800172",
        "P_NEED_SWITCH_INFO": "0",
        "P_HIDE_SWITCH_INFO": "0"
    },
    {
        "v80VfcXr": "2174",
        "b4D63uav": "20",
        "NW3CIk2A": "0",
        "P_SCENE_ID": "0",
        "t5R47iwj": "0",
        "P_PRIORITY": "0",
        "P_SCHEDULE_ID": "800173",
        "P_NEED_SWITCH_INFO": "0",
        "P_HIDE_SWITCH_INFO": "0"
    },
    {
        "v80VfcXr": "2175",
        "b4D63uav": "20",
        "NW3CIk2A": "0",
        "P_SCENE_ID": "0",
        "t5R47iwj": "0",
        "P_PRIORITY": "0",
        "P_SCHEDULE_ID": "800174",
        "P_NEED_SWITCH_INFO": "0",
        "P_HIDE_SWITCH_INFO": "0"
    },
    {
        "v80VfcXr": "2176",
        "b4D63uav": "20",
        "NW3CIk2A": "0",
        "P_SCENE_ID": "0",
        "t5R47iwj": "0",
        "P_PRIORITY": "0",
        "P_SCHEDULE_ID": "800175",
        "P_NEED_SWITCH_INFO": "0",
        "P_HIDE_SWITCH_INFO": "0"
    },
    {
        "v80VfcXr": "2177",
        "b4D63uav": "20",
        "NW3CIk2A": "0",
        "P_SCENE_ID": "0",
        "t5R47iwj": "0",
        "P_PRIORITY": "0",
        "P_SCHEDULE_ID": "800176",
        "P_NEED_SWITCH_INFO": "0",
        "P_HIDE_SWITCH_INFO": "0"
    },
    {
        "v80VfcXr": "2178",
        "b4D63uav": "20",
        "NW3CIk2A": "0",
        "P_SCENE_ID": "0",
        "t5R47iwj": "0",
        "P_PRIORITY": "0",
        "P_SCHEDULE_ID": "800177",
        "P_NEED_SWITCH_INFO": "0",
        "P_HIDE_SWITCH_INFO": "0"
    },
    {
        "v80VfcXr": "2179",
        "b4D63uav": "20",
        "NW3CIk2A": "0",
        "P_SCENE_ID": "0",
        "t5R47iwj": "0",
        "P_PRIORITY": "0",
        "P_SCHEDULE_ID": "800178",
        "P_NEED_SWITCH_INFO": "0",
        "P_HIDE_SWITCH_INFO": "0"
    },
    {
        "v80VfcXr": "2180",
        "b4D63uav": "20",
        "NW3CIk2A": "0",
        "P_SCENE_ID": "0",
        "t5R47iwj": "0",
        "P_PRIORITY": "0",
        "P_SCHEDULE_ID": "800179",
        "P_NEED_SWITCH_INFO": "0",
        "P_HIDE_SWITCH_INFO": "0"
    },
    {
        "v80VfcXr": "2181",
        "b4D63uav": "20",
        "NW3CIk2A": "0",
        "P_SCENE_ID": "0",
        "t5R47iwj": "0",
        "P_PRIORITY": "0",
        "P_SCHEDULE_ID": "800180",
        "P_NEED_SWITCH_INFO": "0",
        "P_HIDE_SWITCH_INFO": "0"
    },
    {
        "v80VfcXr": "2182",
        "b4D63uav": "20",
        "NW3CIk2A": "0",
        "P_SCENE_ID": "0",
        "t5R47iwj": "0",
        "P_PRIORITY": "0",
        "P_SCHEDULE_ID": "800181",
        "P_NEED_SWITCH_INFO": "0",
        "P_HIDE_SWITCH_INFO": "0"
    },
    {
        "v80VfcXr": "2183",
        "b4D63uav": "20",
        "NW3CIk2A": "0",
        "P_SCENE_ID": "0",
        "t5R47iwj": "0",
        "P_PRIORITY": "0",
        "P_SCHEDULE_ID": "800182",
        "P_NEED_SWITCH_INFO": "0",
        "P_HIDE_SWITCH_INFO": "0"
    },
    {
        "v80VfcXr": "2184",
        "b4D63uav": "20",
        "NW3CIk2A": "0",
        "P_SCENE_ID": "0",
        "t5R47iwj": "0",
        "P_PRIORITY": "0",
        "P_SCHEDULE_ID": "800183",
        "P_NEED_SWITCH_INFO": "0",
        "P_HIDE_SWITCH_INFO": "0"
    },
    {
        "v80VfcXr": "2185",
        "b4D63uav": "20",
        "NW3CIk2A": "0",
        "P_SCENE_ID": "0",
        "t5R47iwj": "0",
        "P_PRIORITY": "0",
        "P_SCHEDULE_ID": "800184",
        "P_NEED_SWITCH_INFO": "0",
        "P_HIDE_SWITCH_INFO": "0"
    },
    {
        "v80VfcXr": "2186",
        "b4D63uav": "20",
        "NW3CIk2A": "0",
        "P_SCENE_ID": "0",
        "t5R47iwj": "0",
        "P_PRIORITY": "0",
        "P_SCHEDULE_ID": "800185",
        "P_NEED_SWITCH_INFO": "0",
        "P_HIDE_SWITCH_INFO": "0"
    },
    {
        "v80VfcXr": "2187",
        "b4D63uav": "20",
        "NW3CIk2A": "0",
        "P_SCENE_ID": "0",
        "t5R47iwj": "0",
        "P_PRIORITY": "0",
        "P_SCHEDULE_ID": "800186",
        "P_NEED_SWITCH_INFO": "0",
        "P_HIDE_SWITCH_INFO": "0"
    },
    {
        "v80VfcXr": "2188",
        "b4D63uav": "20",
        "NW3CIk2A": "0",
        "P_SCENE_ID": "0",
        "t5R47iwj": "0",
        "P_PRIORITY": "0",
        "P_SCHEDULE_ID": "800187",
        "P_NEED_SWITCH_INFO": "0",
        "P_HIDE_SWITCH_INFO": "0"
    },
    {
        "v80VfcXr": "2189",
        "b4D63uav": "20",
        "NW3CIk2A": "0",
        "P_SCENE_ID": "0",
        "t5R47iwj": "0",
        "P_PRIORITY": "0",
        "P_SCHEDULE_ID": "800188",
        "P_NEED_SWITCH_INFO": "0",
        "P_HIDE_SWITCH_INFO": "0"
    },
    {
        "v80VfcXr": "2190",
        "b4D63uav": "20",
        "NW3CIk2A": "0",
        "P_SCENE_ID": "0",
        "t5R47iwj": "0",
        "P_PRIORITY": "0",
        "P_SCHEDULE_ID": "800189",
        "P_NEED_SWITCH_INFO": "0",
        "P_HIDE_SWITCH_INFO": "0"
    },
    {
        "v80VfcXr": "2191",
        "b4D63uav": "20",
        "NW3CIk2A": "0",
        "P_SCENE_ID": "0",
        "t5R47iwj": "0",
        "P_PRIORITY": "0",
        "P_SCHEDULE_ID": "800190",
        "P_NEED_SWITCH_INFO": "0",
        "P_HIDE_SWITCH_INFO": "0"
    },
    {
        "v80VfcXr": "2192",
        "b4D63uav": "20",
        "NW3CIk2A": "0",
        "P_SCENE_ID": "0",
        "t5R47iwj": "0",
        "P_PRIORITY": "0",
        "P_SCHEDULE_ID": "800191",
        "P_NEED_SWITCH_INFO": "0",
        "P_HIDE_SWITCH_INFO": "0"
    },
    {
        "v80VfcXr": "2193",
        "b4D63uav": "20",
        "NW3CIk2A": "0",
        "P_SCENE_ID": "0",
        "t5R47iwj": "0",
        "P_PRIORITY": "0",
        "P_SCHEDULE_ID": "800192",
        "P_NEED_SWITCH_INFO": "0",
        "P_HIDE_SWITCH_INFO": "0"
    },
    {
        "v80VfcXr": "2194",
        "b4D63uav": "20",
        "NW3CIk2A": "0",
        "P_SCENE_ID": "0",
        "t5R47iwj": "0",
        "P_PRIORITY": "0",
        "P_SCHEDULE_ID": "800193",
        "P_NEED_SWITCH_INFO": "0",
        "P_HIDE_SWITCH_INFO": "0"
    },
    {
        "v80VfcXr": "2195",
        "b4D63uav": "20",
        "NW3CIk2A": "0",
        "P_SCENE_ID": "0",
        "t5R47iwj": "0",
        "P_PRIORITY": "0",
        "P_SCHEDULE_ID": "800194",
        "P_NEED_SWITCH_INFO": "0",
        "P_HIDE_SWITCH_INFO": "0"
    },
    {
        "v80VfcXr": "2196",
        "b4D63uav": "20",
        "NW3CIk2A": "0",
        "P_SCENE_ID": "0",
        "t5R47iwj": "0",
        "P_PRIORITY": "0",
        "P_SCHEDULE_ID": "800195",
        "P_NEED_SWITCH_INFO": "0",
        "P_HIDE_SWITCH_INFO": "0"
    },
    {
        "v80VfcXr": "2197",
        "b4D63uav": "20",
        "NW3CIk2A": "0",
        "P_SCENE_ID": "0",
        "t5R47iwj": "0",
        "P_PRIORITY": "0",
        "P_SCHEDULE_ID": "800196",
        "P_NEED_SWITCH_INFO": "0",
        "P_HIDE_SWITCH_INFO": "0"
    },
    {
        "v80VfcXr": "2198",
        "b4D63uav": "20",
        "NW3CIk2A": "0",
        "P_SCENE_ID": "0",
        "t5R47iwj": "0",
        "P_PRIORITY": "0",
        "P_SCHEDULE_ID": "800197",
        "P_NEED_SWITCH_INFO": "0",
        "P_HIDE_SWITCH_INFO": "0"
    },
    {
        "v80VfcXr": "2199",
        "b4D63uav": "20",
        "NW3CIk2A": "0",
        "P_SCENE_ID": "0",
        "t5R47iwj": "0",
        "P_PRIORITY": "0",
        "P_SCHEDULE_ID": "800198",
        "P_NEED_SWITCH_INFO": "0",
        "P_HIDE_SWITCH_INFO": "0"
    },
    {
        "v80VfcXr": "2200",
        "b4D63uav": "20",
        "NW3CIk2A": "0",
        "P_SCENE_ID": "0",
        "t5R47iwj": "0",
        "P_PRIORITY": "0",
        "P_SCHEDULE_ID": "800199",
        "P_NEED_SWITCH_INFO": "0",
        "P_HIDE_SWITCH_INFO": "0"
    },
    {
        "v80VfcXr": "2201",
        "b4D63uav": "20",
        "NW3CIk2A": "0",
        "P_SCENE_ID": "0",
        "t5R47iwj": "0",
        "P_PRIORITY": "0",
        "P_SCHEDULE_ID": "800200",
        "P_NEED_SWITCH_INFO": "0",
        "P_HIDE_SWITCH_INFO": "0"
    },
    {
        "v80VfcXr": "2202",
        "b4D63uav": "20",
        "NW3CIk2A": "0",
        "P_SCENE_ID": "0",
        "t5R47iwj": "0",
        "P_PRIORITY": "0",
        "P_SCHEDULE_ID": "800201",
        "P_NEED_SWITCH_INFO": "0",
        "P_HIDE_SWITCH_INFO": "0"
    },
    {
        "v80VfcXr": "2203",
        "b4D63uav": "20",
        "NW3CIk2A": "0",
        "P_SCENE_ID": "0",
        "t5R47iwj": "0",
        "P_PRIORITY": "0",
        "P_SCHEDULE_ID": "800202",
        "P_NEED_SWITCH_INFO": "0",
        "P_HIDE_SWITCH_INFO": "0"
    },
    {
        "v80VfcXr": "2204",
        "b4D63uav": "20",
        "NW3CIk2A": "0",
        "P_SCENE_ID": "0",
        "t5R47iwj": "0",
        "P_PRIORITY": "0",
        "P_SCHEDULE_ID": "800203",
        "P_NEED_SWITCH_INFO": "0",
        "P_HIDE_SWITCH_INFO": "0"
    },
    {
        "v80VfcXr": "2205",
        "b4D63uav": "20",
        "NW3CIk2A": "0",
        "P_SCENE_ID": "0",
        "t5R47iwj": "0",
        "P_PRIORITY": "0",
        "P_SCHEDULE_ID": "800204",
        "P_NEED_SWITCH_INFO": "0",
        "P_HIDE_SWITCH_INFO": "0"
    },
    {
        "v80VfcXr": "2206",
        "b4D63uav": "20",
        "NW3CIk2A": "0",
        "P_SCENE_ID": "0",
        "t5R47iwj": "0",
        "P_PRIORITY": "0",
        "P_SCHEDULE_ID": "800205",
        "P_NEED_SWITCH_INFO": "0",
        "P_HIDE_SWITCH_INFO": "0"
    },
    {
        "v80VfcXr": "2207",
        "b4D63uav": "20",
        "NW3CIk2A": "0",
        "P_SCENE_ID": "0",
        "t5R47iwj": "0",
        "P_PRIORITY": "0",
        "P_SCHEDULE_ID": "800206",
        "P_NEED_SWITCH_INFO": "0",
        "P_HIDE_SWITCH_INFO": "0"
    },
    {
        "v80VfcXr": "2208",
        "b4D63uav": "20",
        "NW3CIk2A": "0",
        "P_SCENE_ID": "0",
        "t5R47iwj": "0",
        "P_PRIORITY": "0",
        "P_SCHEDULE_ID": "800207",
        "P_NEED_SWITCH_INFO": "0",
        "P_HIDE_SWITCH_INFO": "0"
    },
    {
        "v80VfcXr": "2209",
        "b4D63uav": "20",
        "NW3CIk2A": "0",
        "P_SCENE_ID": "0",
        "t5R47iwj": "0",
        "P_PRIORITY": "0",
        "P_SCHEDULE_ID": "800208",
        "P_NEED_SWITCH_INFO": "0",
        "P_HIDE_SWITCH_INFO": "0"
    },
    {
        "v80VfcXr": "2210",
        "b4D63uav": "20",
        "NW3CIk2A": "0",
        "P_SCENE_ID": "0",
        "t5R47iwj": "0",
        "P_PRIORITY": "0",
        "P_SCHEDULE_ID": "800209",
        "P_NEED_SWITCH_INFO": "0",
        "P_HIDE_SWITCH_INFO": "0"
    },
    {
        "v80VfcXr": "2211",
        "b4D63uav": "20",
        "NW3CIk2A": "0",
        "P_SCENE_ID": "0",
        "t5R47iwj": "0",
        "P_PRIORITY": "0",
        "P_SCHEDULE_ID": "800210",
        "P_NEED_SWITCH_INFO": "0",
        "P_HIDE_SWITCH_INFO": "0"
    },
    {
        "v80VfcXr": "2212",
        "b4D63uav": "20",
        "NW3CIk2A": "0",
        "P_SCENE_ID": "0",
        "t5R47iwj": "0",
        "P_PRIORITY": "0",
        "P_SCHEDULE_ID": "800211",
        "P_NEED_SWITCH_INFO": "0",
        "P_HIDE_SWITCH_INFO": "0"
    },
    {
        "v80VfcXr": "2213",
        "b4D63uav": "20",
        "NW3CIk2A": "0",
        "P_SCENE_ID": "0",
        "t5R47iwj": "0",
        "P_PRIORITY": "0",
        "P_SCHEDULE_ID": "800212",
        "P_NEED_SWITCH_INFO": "0",
        "P_HIDE_SWITCH_INFO": "0"
    },
    {
        "v80VfcXr": "2214",
        "b4D63uav": "20",
        "NW3CIk2A": "0",
        "P_SCENE_ID": "0",
        "t5R47iwj": "0",
        "P_PRIORITY": "0",
        "P_SCHEDULE_ID": "800213",
        "P_NEED_SWITCH_INFO": "0",
        "P_HIDE_SWITCH_INFO": "0"
    },
    {
        "v80VfcXr": "2215",
        "b4D63uav": "20",
        "NW3CIk2A": "0",
        "P_SCENE_ID": "0",
        "t5R47iwj": "0",
        "P_PRIORITY": "0",
        "P_SCHEDULE_ID": "800214",
        "P_NEED_SWITCH_INFO": "0",
        "P_HIDE_SWITCH_INFO": "0"
    },
    {
        "v80VfcXr": "2216",
        "b4D63uav": "20",
        "NW3CIk2A": "0",
        "P_SCENE_ID": "0",
        "t5R47iwj": "0",
        "P_PRIORITY": "0",
        "P_SCHEDULE_ID": "800215",
        "P_NEED_SWITCH_INFO": "0",
        "P_HIDE_SWITCH_INFO": "0"
    },
    {
        "v80VfcXr": "2217",
        "b4D63uav": "20",
        "NW3CIk2A": "0",
        "P_SCENE_ID": "0",
        "t5R47iwj": "0",
        "P_PRIORITY": "0",
        "P_SCHEDULE_ID": "800216",
        "P_NEED_SWITCH_INFO": "0",
        "P_HIDE_SWITCH_INFO": "0"
    },
    {
        "v80VfcXr": "2218",
        "b4D63uav": "20",
        "NW3CIk2A": "0",
        "P_SCENE_ID": "0",
        "t5R47iwj": "0",
        "P_PRIORITY": "0",
        "P_SCHEDULE_ID": "800217",
        "P_NEED_SWITCH_INFO": "0",
        "P_HIDE_SWITCH_INFO": "0"
    }
]