[
    {
        "c3prn4s7": "1000",
        "P_SKILL_NAME": "\u9b54\u5200\u89e3\u653e",
        "moWQ30GH": "1",
        "PEVks0h8": "1:10115",
        "E19X6kmB": "1019306",
        "X4mIT5Lc": "1",
        "P_EXT_IMG_PARAM": ""
    },
    {
        "c3prn4s7": "1001",
        "P_SKILL_NAME": "\u6e05\u5ec9\u306b\u821e\u3046\u5263",
        "moWQ30GH": "1",
        "PEVks0h8": "1:10122",
        "E19X6kmB": "8016500",
        "X4mIT5Lc": "1",
        "P_EXT_IMG_PARAM": ""
    },
    {
        "c3prn4s7": "1002",
        "P_SKILL_NAME": "\u5922\u5e7b\u306e\u7406\u60f3",
        "moWQ30GH": "1",
        "PEVks0h8": "1:10122",
        "E19X6kmB": "8016600",
        "X4mIT5Lc": "1",
        "P_EXT_IMG_PARAM": ""
    },
    {
        "c3prn4s7": "1003",
        "P_SKILL_NAME": "\u6f70\u3048\u306c\u5e0c\u671b",
        "moWQ30GH": "1",
        "PEVks0h8": "1:10122",
        "E19X6kmB": "8016700",
        "X4mIT5Lc": "1",
        "P_EXT_IMG_PARAM": ""
    },
    {
        "c3prn4s7": "1004",
        "P_SKILL_NAME": "\u5922\u898b\u305f\u30bb\u30ab\u30a4",
        "moWQ30GH": "1",
        "PEVks0h8": "1:10121",
        "E19X6kmB": "2020000",
        "X4mIT5Lc": "1",
        "P_EXT_IMG_PARAM": ""
    },
    {
        "c3prn4s7": "1005",
        "P_SKILL_NAME": "\u8987\u8005\u3092\u671b\u3080\u529b",
        "moWQ30GH": "1",
        "PEVks0h8": "1:10121",
        "E19X6kmB": "3020006",
        "X4mIT5Lc": "1",
        "P_EXT_IMG_PARAM": ""
    },
    {
        "c3prn4s7": "1006",
        "P_SKILL_NAME": "\u5929\u7a1f\u306a\u308b\u610f\u5fd7",
        "moWQ30GH": "1",
        "PEVks0h8": "1:10116",
        "E19X6kmB": "1001002",
        "X4mIT5Lc": "1",
        "P_EXT_IMG_PARAM": ""
    },
    {
        "c3prn4s7": "1007",
        "P_SKILL_NAME": "\u9ad8\u8cb4\u306a\u308b\u7fa9\u52d9",
        "moWQ30GH": "1",
        "PEVks0h8": "1:10116",
        "E19X6kmB": "1002002",
        "X4mIT5Lc": "1",
        "P_EXT_IMG_PARAM": ""
    },
    {
        "c3prn4s7": "1008",
        "P_SKILL_NAME": "\u7121\u8f9c\u306a\u308b\u732e\u8eab",
        "moWQ30GH": "1",
        "PEVks0h8": "1:10116",
        "E19X6kmB": "1003002",
        "X4mIT5Lc": "1",
        "P_EXT_IMG_PARAM": ""
    },
    {
        "c3prn4s7": "1009",
        "P_SKILL_NAME": "\u6fc0\u70c8\u306a\u308b\u6069\u8b90",
        "moWQ30GH": "1",
        "PEVks0h8": "1:10116",
        "E19X6kmB": "1004002",
        "X4mIT5Lc": "1",
        "P_EXT_IMG_PARAM": ""
    },
    {
        "c3prn4s7": "1010",
        "P_SKILL_NAME": "\u771f\u306a\u308b\u8ce2\u738b",
        "moWQ30GH": "1",
        "PEVks0h8": "1:10117",
        "E19X6kmB": "5040007",
        "X4mIT5Lc": "1",
        "P_EXT_IMG_PARAM": ""
    },
    {
        "c3prn4s7": "1011",
        "P_SKILL_NAME": "\u8a8d\u8b58\u306a\u304d\u81ea\u6211",
        "moWQ30GH": "1",
        "PEVks0h8": "1:10123",
        "E19X6kmB": "4010001",
        "X4mIT5Lc": "1",
        "P_EXT_IMG_PARAM": ""
    },
    {
        "c3prn4s7": "1012",
        "P_SKILL_NAME": "\u610f\u5fd7\u306a\u304d\u5263",
        "moWQ30GH": "1",
        "PEVks0h8": "1:10123",
        "E19X6kmB": "2010001",
        "X4mIT5Lc": "1",
        "P_EXT_IMG_PARAM": ""
    },
    {
        "c3prn4s7": "1013",
        "P_SKILL_NAME": "\u304b\u306e\u548e\u306b\u7f6a\u306f\u7121\u3057",
        "moWQ30GH": "1",
        "PEVks0h8": "1:10123",
        "E19X6kmB": "3010000",
        "X4mIT5Lc": "1",
        "P_EXT_IMG_PARAM": ""
    },
    {
        "c3prn4s7": "1014",
        "P_SKILL_NAME": "\u672a\u6765\u3078\u306e\u4fe1\u5ff5",
        "moWQ30GH": "1",
        "PEVks0h8": "1:10118",
        "E19X6kmB": "1001002",
        "X4mIT5Lc": "1",
        "P_EXT_IMG_PARAM": ""
    },
    {
        "c3prn4s7": "1015",
        "P_SKILL_NAME": "\u53cb\u3092\u5b88\u308b\u60f3\u3044",
        "moWQ30GH": "1",
        "PEVks0h8": "1:10118",
        "E19X6kmB": "1003002",
        "X4mIT5Lc": "1",
        "P_EXT_IMG_PARAM": ""
    },
    {
        "c3prn4s7": "1016",
        "P_SKILL_NAME": "\u65b0\u305f\u306a\u308b\u5883\u5730",
        "moWQ30GH": "1",
        "PEVks0h8": "1:10118",
        "E19X6kmB": "1002002",
        "X4mIT5Lc": "1",
        "P_EXT_IMG_PARAM": ""
    },
    {
        "c3prn4s7": "1017",
        "P_SKILL_NAME": "\u5929\u3092\u8cab\u304f\u96f7\u5149",
        "moWQ30GH": "1",
        "PEVks0h8": "1:10118",
        "E19X6kmB": "1001002",
        "X4mIT5Lc": "1",
        "P_EXT_IMG_PARAM": ""
    },
    {
        "c3prn4s7": "1018",
        "P_SKILL_NAME": "\u4fe1\u7fa9\u306e\u6a5f\u68b0\u4eba\u5f62",
        "moWQ30GH": "1",
        "PEVks0h8": "1:10118",
        "E19X6kmB": "1004002",
        "X4mIT5Lc": "1",
        "P_EXT_IMG_PARAM": ""
    },
    {
        "c3prn4s7": "1019",
        "P_SKILL_NAME": "\u7fe0\u5fc3\u306e\u5200\u9798",
        "moWQ30GH": "1",
        "PEVks0h8": "1:10120",
        "E19X6kmB": "5080001",
        "X4mIT5Lc": "1",
        "P_EXT_IMG_PARAM": ""
    },
    {
        "c3prn4s7": "1020",
        "P_SKILL_NAME": "\u52b1\u708e\u306e\u52c7\u58eb",
        "moWQ30GH": "1",
        "PEVks0h8": "1:10119",
        "E19X6kmB": "10020000",
        "X4mIT5Lc": "1",
        "P_EXT_IMG_PARAM": ""
    },
    {
        "c3prn4s7": "1021",
        "P_SKILL_NAME": "\u5b64\u92ed\u306e\u8056\u9280",
        "moWQ30GH": "1",
        "PEVks0h8": "1:10124",
        "E19X6kmB": "1015001",
        "X4mIT5Lc": "1",
        "P_EXT_IMG_PARAM": ""
    },
    {
        "c3prn4s7": "1022",
        "P_SKILL_NAME": "\u30ad\u30f3\u30b0\u30aa\u30d6\u30d6\u30ec\u30a4\u30d6",
        "moWQ30GH": "1",
        "PEVks0h8": "1:10125",
        "E19X6kmB": "1001002",
        "X4mIT5Lc": "1",
        "P_EXT_IMG_PARAM": ""
    },
    {
        "c3prn4s7": "1023",
        "P_SKILL_NAME": "\u30ad\u30f3\u30b0\u30aa\u30d6\u30d6\u30ec\u30a4\u30d6",
        "moWQ30GH": "1",
        "PEVks0h8": "1:10125",
        "E19X6kmB": "1001002",
        "X4mIT5Lc": "1",
        "P_EXT_IMG_PARAM": ""
    },
    {
        "c3prn4s7": "1024",
        "P_SKILL_NAME": "\u4ef2\u9593\u3092\u5b88\u308b\u76fe",
        "moWQ30GH": "1",
        "PEVks0h8": "1:10125",
        "E19X6kmB": "1002002",
        "X4mIT5Lc": "1",
        "P_EXT_IMG_PARAM": ""
    },
    {
        "c3prn4s7": "1025",
        "P_SKILL_NAME": "\u5fc5\u6bba\u5263\u306e\u4f7f\u3044\u624b",
        "moWQ30GH": "1",
        "PEVks0h8": "1:10125",
        "E19X6kmB": "2010001",
        "X4mIT5Lc": "1",
        "P_EXT_IMG_PARAM": ""
    },
    {
        "c3prn4s7": "1026",
        "P_SKILL_NAME": "\u73fe\u4ee3\u306b\u8607\u308a\u3057\u6b66\u58eb",
        "moWQ30GH": "1",
        "PEVks0h8": "1:10125",
        "E19X6kmB": "5070007",
        "X4mIT5Lc": "1",
        "P_EXT_IMG_PARAM": ""
    },
    {
        "c3prn4s7": "1027",
        "P_SKILL_NAME": "\u304a\u8ee2\u5a46\u30bb\u30ec\u30d6",
        "moWQ30GH": "1",
        "PEVks0h8": "1:10125",
        "E19X6kmB": "3010000",
        "X4mIT5Lc": "1",
        "P_EXT_IMG_PARAM": ""
    },
    {
        "c3prn4s7": "1028",
        "P_SKILL_NAME": "\u9ed2\u3044\u30ad\u30e5\u30fc\u30d4\u30c3\u30c8",
        "moWQ30GH": "1",
        "PEVks0h8": "1:10125",
        "E19X6kmB": "7000001",
        "X4mIT5Lc": "1",
        "P_EXT_IMG_PARAM": ""
    },
    {
        "c3prn4s7": "1029",
        "P_SKILL_NAME": "\u6bb2\u4f0f\u306e\u9b54\u76fe",
        "moWQ30GH": "1",
        "PEVks0h8": "1:10126",
        "E19X6kmB": "5040014",
        "X4mIT5Lc": "1",
        "P_EXT_IMG_PARAM": ""
    },
    {
        "c3prn4s7": "1030",
        "P_SKILL_NAME": "\u5cfb\u8c8c\u306a\u308b\u9b54\u93a7",
        "moWQ30GH": "1",
        "PEVks0h8": "1:10126",
        "E19X6kmB": "1004002",
        "X4mIT5Lc": "1",
        "P_EXT_IMG_PARAM": ""
    },
    {
        "c3prn4s7": "1031",
        "P_SKILL_NAME": "\u4e03\u3064\u3081\u306e\u93a7",
        "moWQ30GH": "1",
        "PEVks0h8": "1",
        "E19X6kmB": "6030003",
        "X4mIT5Lc": "1",
        "P_EXT_IMG_PARAM": ""
    },
    {
        "c3prn4s7": "1032",
        "P_SKILL_NAME": "\u9b54\u6027\u306e\u9023\u5f3e",
        "moWQ30GH": "1",
        "PEVks0h8": "1:10128",
        "E19X6kmB": "2010001",
        "X4mIT5Lc": "1",
        "P_EXT_IMG_PARAM": ""
    },
    {
        "c3prn4s7": "1033",
        "P_SKILL_NAME": "\u9e97\u9583\u306e\u9b54\u5263",
        "moWQ30GH": "1",
        "PEVks0h8": "1:10129",
        "E19X6kmB": "2010001",
        "X4mIT5Lc": "1",
        "P_EXT_IMG_PARAM": ""
    },
    {
        "c3prn4s7": "1034",
        "P_SKILL_NAME": "\u7121\u9650\u306e\u9b54\u529b",
        "moWQ30GH": "1",
        "PEVks0h8": "1:10130",
        "E19X6kmB": "5010000",
        "X4mIT5Lc": "1",
        "P_EXT_IMG_PARAM": ""
    },
    {
        "c3prn4s7": "1035",
        "P_SKILL_NAME": "\u71c3\u3048\u4e0a\u304c\u308b\u610f\u5fd7",
        "moWQ30GH": "1",
        "PEVks0h8": "2:10131,2:10134",
        "E19X6kmB": "5080005",
        "X4mIT5Lc": "0",
        "P_EXT_IMG_PARAM": "\u30d1\u30fc\u30c6\u30a3\u306b\u30eb\u30fc\u30b7\u30a7\u7de8\u6210\u6642\u3001\u307e\u305f\u306f\u300cHP\u56de\u5fa9\u300d\u30bf\u30a4\u30d7\u306e\u30b9\u30d5\u30a3\u30a2\u3092\u88c5\u5099\u6642"
    },
    {
        "c3prn4s7": "1036",
        "P_SKILL_NAME": "\u65b0\u305f\u306a\u308b\u82f1\u96c4",
        "moWQ30GH": "1",
        "PEVks0h8": "2:10132,2:10133",
        "E19X6kmB": "5070009",
        "X4mIT5Lc": "0",
        "P_EXT_IMG_PARAM": "\u30d1\u30fc\u30c6\u30a3\u306b\u30ea\u30e1\u30e9\u7de8\u6210\u6642\u3001\u307e\u305f\u306f\u300c\u30af\u30ea\u30c6\u30a3\u30ab\u30eb\u300d\u30bf\u30a4\u30d7\u306e\u30b9\u30d5\u30a3\u30a2\u3092\u88c5\u5099\u6642"
    },
    {
        "c3prn4s7": "1037",
        "P_SKILL_NAME": "\u672a\u3060\u77e5\u3089\u306a\u3044\u4e16\u754c\u3078",
        "moWQ30GH": "1",
        "PEVks0h8": "2:10135,2:20001",
        "E19X6kmB": "7050004",
        "X4mIT5Lc": "1",
        "P_EXT_IMG_PARAM": ""
    },
    {
        "c3prn4s7": "1038",
        "P_SKILL_NAME": "\u5947\u8de1\u3092\u9858\u3046\u529b",
        "moWQ30GH": "1",
        "PEVks0h8": "2:10135,2:20004",
        "E19X6kmB": "5010011",
        "X4mIT5Lc": "1",
        "P_EXT_IMG_PARAM": ""
    },
    {
        "c3prn4s7": "1039",
        "P_SKILL_NAME": "\u5fc3\u3092\u958b\u304f\u8a00\u8449",
        "moWQ30GH": "1",
        "PEVks0h8": "2:10135,2:20002",
        "E19X6kmB": "6060006",
        "X4mIT5Lc": "1",
        "P_EXT_IMG_PARAM": ""
    },
    {
        "c3prn4s7": "1040",
        "P_SKILL_NAME": "\u96f2\u3092\u8cab\u304f\u60f3\u3044",
        "moWQ30GH": "1",
        "PEVks0h8": "2:10135,2:20010",
        "E19X6kmB": "4010011",
        "X4mIT5Lc": "1",
        "P_EXT_IMG_PARAM": ""
    },
    {
        "c3prn4s7": "1041",
        "P_SKILL_NAME": "\u5927\u6cb3\u30ce\u52a0\u8b77",
        "moWQ30GH": "1",
        "PEVks0h8": "1:10136",
        "E19X6kmB": "10200006",
        "X4mIT5Lc": "0",
        "P_EXT_IMG_PARAM": ""
    },
    {
        "c3prn4s7": "1042",
        "P_SKILL_NAME": "\u795e\u69cd\u30cd\u30b0\u30aa\u30fc\u30cd\u306e\u708e\u64c1",
        "moWQ30GH": "1",
        "PEVks0h8": "2:20008,2:15000",
        "E19X6kmB": "5070012",
        "X4mIT5Lc": "0",
        "P_EXT_IMG_PARAM": ""
    },
    {
        "c3prn4s7": "1043",
        "P_SKILL_NAME": "\u795e\u5263\u30b5\u30ea\u30e5\u30aa\u30f3\u306e\u6e05\u5f8b",
        "moWQ30GH": "1",
        "PEVks0h8": "2:10132,2:15001",
        "E19X6kmB": "3020015",
        "X4mIT5Lc": "0",
        "P_EXT_IMG_PARAM": ""
    },
    {
        "c3prn4s7": "1044",
        "P_SKILL_NAME": "\u795e\u5263\u30bc\u30d5\u30a1\u30ea\u30a2\u306e\u661f\u98a8",
        "moWQ30GH": "1",
        "PEVks0h8": "2:15002,2:15001",
        "E19X6kmB": "4010300",
        "X4mIT5Lc": "0",
        "P_EXT_IMG_PARAM": ""
    },
    {
        "c3prn4s7": "1045",
        "P_SKILL_NAME": "\u795e\u5263\u30ec\u30f4\u30a3\u30a2\u30f3\u30b9\u306e\u523b\u9e97",
        "moWQ30GH": "1",
        "PEVks0h8": "2:20004,2:15003",
        "E19X6kmB": "5010012",
        "X4mIT5Lc": "0",
        "P_EXT_IMG_PARAM": ""
    },
    {
        "c3prn4s7": "1046",
        "P_SKILL_NAME": "\u795e\u6756\u30ed\u30fc\u30e0\u30fb\u30ed\u30fc\u30c9\u306e\u6e90\u53e1",
        "moWQ30GH": "1",
        "PEVks0h8": "2:10131,2:15004",
        "E19X6kmB": "1003011",
        "X4mIT5Lc": "0",
        "P_EXT_IMG_PARAM": ""
    },
    {
        "c3prn4s7": "1047",
        "P_SKILL_NAME": "\u51db\u7136\u305f\u308b\u59c9",
        "moWQ30GH": "1",
        "PEVks0h8": "2:10132,2:15006",
        "E19X6kmB": "3020016",
        "X4mIT5Lc": "0",
        "P_EXT_IMG_PARAM": ""
    },
    {
        "c3prn4s7": "1048",
        "P_SKILL_NAME": "\u5929\u771f\u305f\u308b\u59b9",
        "moWQ30GH": "1",
        "PEVks0h8": "2:20004,2:15005",
        "E19X6kmB": "5010013",
        "X4mIT5Lc": "0",
        "P_EXT_IMG_PARAM": ""
    },
    {
        "c3prn4s7": "1049",
        "P_SKILL_NAME": "\u30b7\u30ca\u30d7\u30b9\u5149\u5316",
        "moWQ30GH": "1",
        "PEVks0h8": "2:20004,2:15007",
        "E19X6kmB": "5070013",
        "X4mIT5Lc": "0",
        "P_EXT_IMG_PARAM": ""
    },
    {
        "c3prn4s7": "1050",
        "P_SKILL_NAME": "\u9670\u967d\u306e\u53cc\u7114",
        "moWQ30GH": "1",
        "PEVks0h8": "1:10139",
        "E19X6kmB": "1008011",
        "X4mIT5Lc": "0",
        "P_EXT_IMG_PARAM": ""
    },
    {
        "c3prn4s7": "1051",
        "P_SKILL_NAME": "\u52c7\u708e\u306e\u731b\u9b42",
        "moWQ30GH": "1",
        "PEVks0h8": "2:10140,2:10141",
        "E19X6kmB": "1004012",
        "X4mIT5Lc": "0",
        "P_EXT_IMG_PARAM": ""
    },
    {
        "c3prn4s7": "1052",
        "P_SKILL_NAME": "\u52c7\u8f1d\u306e\u9583\u7fa9",
        "moWQ30GH": "1",
        "PEVks0h8": "2:10140,2:10141",
        "E19X6kmB": "5070017",
        "X4mIT5Lc": "0",
        "P_EXT_IMG_PARAM": ""
    },
    {
        "c3prn4s7": "1053",
        "P_SKILL_NAME": "\u52c7\u611b\u306e\u6148\u5149",
        "moWQ30GH": "1",
        "PEVks0h8": "2:10140,2:10141",
        "E19X6kmB": "6030011",
        "X4mIT5Lc": "0",
        "P_EXT_IMG_PARAM": ""
    },
    {
        "c3prn4s7": "1054",
        "P_SKILL_NAME": "\u8001\u52c7\u306e\u8c6a\u62f3",
        "moWQ30GH": "1",
        "PEVks0h8": "2:10140,2:10141",
        "E19X6kmB": "3010007",
        "X4mIT5Lc": "0",
        "P_EXT_IMG_PARAM": ""
    },
    {
        "c3prn4s7": "1055",
        "P_SKILL_NAME": "\u30ef\u30eb\u30e2\u30ce\u6483\u9000\uff01",
        "moWQ30GH": "1",
        "PEVks0h8": "2:10140,2:10141",
        "E19X6kmB": "4030001",
        "X4mIT5Lc": "0",
        "P_EXT_IMG_PARAM": ""
    },
    {
        "c3prn4s7": "1056",
        "P_SKILL_NAME": "\u53cb\u9054\u3068\u4e00\u7dd2\u2026",
        "moWQ30GH": "1",
        "PEVks0h8": "2:10140,2:10141",
        "E19X6kmB": "5080006",
        "X4mIT5Lc": "0",
        "P_EXT_IMG_PARAM": ""
    },
    {
        "c3prn4s7": "1057",
        "P_SKILL_NAME": "\u30e8\u30fc\u30c0\u306e\u6559\u3048",
        "moWQ30GH": "1",
        "PEVks0h8": "1",
        "E19X6kmB": "5050002",
        "X4mIT5Lc": "0",
        "P_EXT_IMG_PARAM": ""
    },
    {
        "c3prn4s7": "1058",
        "P_SKILL_NAME": "\u30af\u30ef\u30a4\uff1d\u30ac\u30f3\u306e\u5c0e\u304d",
        "moWQ30GH": "1",
        "PEVks0h8": "1",
        "E19X6kmB": "10300000,11070003",
        "X4mIT5Lc": "0",
        "P_EXT_IMG_PARAM": ""
    },
    {
        "c3prn4s7": "1059",
        "P_SKILL_NAME": "\u60aa\u515a\u306e\u5e78\u904b",
        "moWQ30GH": "1",
        "PEVks0h8": "1:15009",
        "E19X6kmB": "5070014",
        "X4mIT5Lc": "0",
        "P_EXT_IMG_PARAM": ""
    },
    {
        "c3prn4s7": "1060",
        "P_SKILL_NAME": "\u526f\u64cd\u7e26\u58eb",
        "moWQ30GH": "1",
        "PEVks0h8": "1:15008",
        "E19X6kmB": "1004011",
        "X4mIT5Lc": "0",
        "P_EXT_IMG_PARAM": ""
    },
    {
        "c3prn4s7": "1061",
        "P_SKILL_NAME": "\u30d1\u30ef\u30fc\u30fb\u30aa\u30d6\u30fb\u30c0\u30fc\u30af\u30b5\u30a4\u30c9",
        "moWQ30GH": "1",
        "PEVks0h8": "1:20000",
        "E19X6kmB": "4010013",
        "X4mIT5Lc": "0",
        "P_EXT_IMG_PARAM": ""
    },
    {
        "c3prn4s7": "1062",
        "P_SKILL_NAME": "\u6226\u95d8\u8a13\u7df4",
        "moWQ30GH": "1",
        "PEVks0h8": "1",
        "E19X6kmB": "8017200",
        "X4mIT5Lc": "0",
        "P_EXT_IMG_PARAM": ""
    },
    {
        "c3prn4s7": "1063",
        "P_SKILL_NAME": "\u540c\u76df\u8ecd\u306e\u7d71\u7387\u529b",
        "moWQ30GH": "1",
        "PEVks0h8": "1",
        "E19X6kmB": "5040014",
        "X4mIT5Lc": "0",
        "P_EXT_IMG_PARAM": ""
    },
    {
        "c3prn4s7": "1064",
        "P_SKILL_NAME": "\u73a9\u5f04\u3059\u308b\u60aa\u610f",
        "moWQ30GH": "1",
        "PEVks0h8": "2:20002,2:20004",
        "E19X6kmB": "10200007,5040019",
        "X4mIT5Lc": "0",
        "P_EXT_IMG_PARAM": ""
    },
    {
        "c3prn4s7": "1065",
        "P_SKILL_NAME": "\u91d1\u6ac3\u306b\u8fbc\u3081\u305f\u9858\u3044",
        "moWQ30GH": "1",
        "PEVks0h8": "2:10142,2:20001",
        "E19X6kmB": "7050005",
        "X4mIT5Lc": "0",
        "P_EXT_IMG_PARAM": ""
    },
    {
        "c3prn4s7": "1066",
        "P_SKILL_NAME": "\u30d9\u30eb\u30c7\u30f3\u30c8\u306e\u81f3\u5b9d",
        "moWQ30GH": "1",
        "PEVks0h8": "1:10131",
        "E19X6kmB": "8016103",
        "X4mIT5Lc": "0",
        "P_EXT_IMG_PARAM": ""
    },
    {
        "c3prn4s7": "1067",
        "P_SKILL_NAME": "\u59eb\u541b\u306e\u5fe0\u5263",
        "moWQ30GH": "1",
        "PEVks0h8": "1:20001",
        "E19X6kmB": "7050006",
        "X4mIT5Lc": "0",
        "P_EXT_IMG_PARAM": ""
    },
    {
        "c3prn4s7": "1068",
        "P_SKILL_NAME": "\u81f3\u8056\u306e\u6551\u5149",
        "moWQ30GH": "1",
        "PEVks0h8": "1:10143",
        "E19X6kmB": "8016104",
        "X4mIT5Lc": "0",
        "P_EXT_IMG_PARAM": ""
    },
    {
        "c3prn4s7": "1069",
        "P_SKILL_NAME": "\u6020\u9b54\u306e\u53e1\u8b58",
        "moWQ30GH": "1",
        "PEVks0h8": "1:10144",
        "E19X6kmB": "5080007",
        "X4mIT5Lc": "0",
        "P_EXT_IMG_PARAM": ""
    },
    {
        "c3prn4s7": "1070",
        "P_SKILL_NAME": "\u80f8\u306b\u79d8\u3081\u308b\u6b63\u7fa9",
        "moWQ30GH": "1",
        "PEVks0h8": "1:20010",
        "E19X6kmB": "4010012",
        "X4mIT5Lc": "0",
        "P_EXT_IMG_PARAM": ""
    },
    {
        "c3prn4s7": "1071",
        "P_SKILL_NAME": "\u66b4\u8650\u3078\u306e\u9676\u9154",
        "moWQ30GH": "1",
        "PEVks0h8": "1:10132",
        "E19X6kmB": "3010008",
        "X4mIT5Lc": "0",
        "P_EXT_IMG_PARAM": ""
    },
    {
        "c3prn4s7": "1072",
        "P_SKILL_NAME": "\u55dc\u8650\u3078\u306e\u6b32\u6c42",
        "moWQ30GH": "1",
        "PEVks0h8": "1:20002",
        "E19X6kmB": "4060005",
        "X4mIT5Lc": "0",
        "P_EXT_IMG_PARAM": ""
    },
    {
        "c3prn4s7": "1073",
        "P_SKILL_NAME": "\u72c2\u5984\u3059\u308b\u611b\u60c5",
        "moWQ30GH": "1",
        "PEVks0h8": "1:20002",
        "E19X6kmB": "5050010",
        "X4mIT5Lc": "0",
        "P_EXT_IMG_PARAM": ""
    },
    {
        "c3prn4s7": "1074",
        "P_SKILL_NAME": "\u95d8\u4e89\u3078\u306e\u6e07\u671b",
        "moWQ30GH": "1",
        "PEVks0h8": "1:20010",
        "E19X6kmB": "4010014",
        "X4mIT5Lc": "0",
        "P_EXT_IMG_PARAM": ""
    },
    {
        "c3prn4s7": "1075",
        "P_SKILL_NAME": "\u6b6a\u307f\u3057\u6c42\u9053",
        "moWQ30GH": "1",
        "PEVks0h8": "1:20004",
        "E19X6kmB": "5010014",
        "X4mIT5Lc": "0",
        "P_EXT_IMG_PARAM": ""
    },
    {
        "c3prn4s7": "1076",
        "P_SKILL_NAME": "\u679c\u3066\u306a\u304d\u5fe0\u5949",
        "moWQ30GH": "1",
        "PEVks0h8": "2:20008,2:15010",
        "E19X6kmB": "5070018",
        "X4mIT5Lc": "0",
        "P_EXT_IMG_PARAM": ""
    },
    {
        "c3prn4s7": "1077",
        "P_SKILL_NAME": "\u6975\u3081\u3057\u8b77\u5263",
        "moWQ30GH": "1",
        "PEVks0h8": "1:10145",
        "E19X6kmB": "1015012,40000007",
        "X4mIT5Lc": "0",
        "P_EXT_IMG_PARAM": ""
    },
    {
        "c3prn4s7": "1078",
        "P_SKILL_NAME": "\u9298\u7159\u300e\u30b8\u30e5\u30ea\u30a8\u30c3\u30bf\u300f",
        "moWQ30GH": "1",
        "PEVks0h8": "2:20000,2:15011",
        "E19X6kmB": "4060006",
        "X4mIT5Lc": "0",
        "P_EXT_IMG_PARAM": ""
    },
    {
        "c3prn4s7": "1079",
        "P_SKILL_NAME": "\u7d14\u7c8b\u306a\u6b63\u7fa9",
        "moWQ30GH": "1",
        "PEVks0h8": "1:20008",
        "E19X6kmB": "45000002",
        "X4mIT5Lc": "0",
        "P_EXT_IMG_PARAM": ""
    },
    {
        "c3prn4s7": "1080",
        "P_SKILL_NAME": "\u8056\u7948\u66f8-\u907a\u7ae0\u5341\u7bc0-",
        "moWQ30GH": "1",
        "PEVks0h8": "1:20010",
        "E19X6kmB": "45000003",
        "X4mIT5Lc": "0",
        "P_EXT_IMG_PARAM": ""
    },
    {
        "c3prn4s7": "1081",
        "P_SKILL_NAME": "\u30e1\u30bf\u30eb\u30de\u30c3\u30b9\u30eb",
        "moWQ30GH": "1",
        "PEVks0h8": "1:20000",
        "E19X6kmB": "1004013",
        "X4mIT5Lc": "0",
        "P_EXT_IMG_PARAM": ""
    },
    {
        "c3prn4s7": "1082",
        "P_SKILL_NAME": "\u8d6b\u3005\u305f\u308b\u5049\u52f2",
        "moWQ30GH": "1",
        "PEVks0h8": "1:10146",
        "E19X6kmB": "1015013,45000005",
        "X4mIT5Lc": "0",
        "P_EXT_IMG_PARAM": ""
    },
    {
        "c3prn4s7": "1083",
        "P_SKILL_NAME": "\u7345\u5b50\u306e\u8a87\u308a",
        "moWQ30GH": "1",
        "PEVks0h8": "1:20010",
        "E19X6kmB": "45000006",
        "X4mIT5Lc": "0",
        "P_EXT_IMG_PARAM": ""
    },
    {
        "c3prn4s7": "1084",
        "P_SKILL_NAME": "\u53b3\u5c06\u306e\u4e00\u559d",
        "moWQ30GH": "1",
        "PEVks0h8": "1:10132",
        "E19X6kmB": "45000007",
        "X4mIT5Lc": "0",
        "P_EXT_IMG_PARAM": ""
    },
    {
        "c3prn4s7": "1085",
        "P_SKILL_NAME": "\u7fe0\u7cbe\u306e\u5263\u821e",
        "moWQ30GH": "1",
        "PEVks0h8": "1:10131",
        "E19X6kmB": "6010112,6030016",
        "X4mIT5Lc": "0",
        "P_EXT_IMG_PARAM": ""
    },
    {
        "c3prn4s7": "1086",
        "P_SKILL_NAME": "\u898f\u683c\u5916\u306e\u624d\u80fd",
        "moWQ30GH": "1",
        "PEVks0h8": "1:20007",
        "E19X6kmB": "8017004",
        "X4mIT5Lc": "0",
        "P_EXT_IMG_PARAM": ""
    },
    {
        "c3prn4s7": "1087",
        "P_SKILL_NAME": "\u63b2\u3052\u3057\u5927\u7fa9",
        "moWQ30GH": "1",
        "PEVks0h8": "1:10131",
        "E19X6kmB": "45000008",
        "X4mIT5Lc": "0",
        "P_EXT_IMG_PARAM": ""
    },
    {
        "c3prn4s7": "1088",
        "P_SKILL_NAME": "\u8b77\u56fd\u306e\u6c7a\u610f",
        "moWQ30GH": "1",
        "PEVks0h8": "1:20007",
        "E19X6kmB": "45000009",
        "X4mIT5Lc": "0",
        "P_EXT_IMG_PARAM": ""
    },
    {
        "c3prn4s7": "1089",
        "P_SKILL_NAME": "\u898b\u51fa\u3057\u305f\u6b63\u7fa9",
        "moWQ30GH": "1",
        "PEVks0h8": "1:20010",
        "E19X6kmB": "11100001,11100002",
        "X4mIT5Lc": "0",
        "P_EXT_IMG_PARAM": ""
    },
    {
        "c3prn4s7": "1090",
        "P_SKILL_NAME": "\u738b\u305f\u308b\u5049\u5091",
        "moWQ30GH": "1",
        "PEVks0h8": "1:20000",
        "E19X6kmB": "1015015,10002008",
        "X4mIT5Lc": "0",
        "P_EXT_IMG_PARAM": ""
    },
    {
        "c3prn4s7": "1091",
        "P_SKILL_NAME": "\u9ad8\u6f54\u306a\u7406\u60f3",
        "moWQ30GH": "1",
        "PEVks0h8": "1:20004",
        "E19X6kmB": "5010015,5080009",
        "X4mIT5Lc": "0",
        "P_EXT_IMG_PARAM": ""
    },
    {
        "c3prn4s7": "1092",
        "P_SKILL_NAME": "\u898b\u636e\u3048\u3057\u672a\u6765",
        "moWQ30GH": "1",
        "PEVks0h8": "1:20004",
        "E19X6kmB": "11001003",
        "X4mIT5Lc": "0",
        "P_EXT_IMG_PARAM": ""
    },
    {
        "c3prn4s7": "1093",
        "P_SKILL_NAME": "\u6b66\u795e\u306e\u7a76\u9053",
        "moWQ30GH": "1",
        "PEVks0h8": "1:20008",
        "E19X6kmB": "40000008",
        "X4mIT5Lc": "0",
        "P_EXT_IMG_PARAM": ""
    },
    {
        "c3prn4s7": "1094",
        "P_SKILL_NAME": "\u6226\u8853\u773c",
        "moWQ30GH": "1",
        "PEVks0h8": "1:20000",
        "E19X6kmB": "6010113,5010016",
        "X4mIT5Lc": "0",
        "P_EXT_IMG_PARAM": ""
    },
    {
        "c3prn4s7": "1095",
        "P_SKILL_NAME": "\u985e\u3044\u7a00\u306a\u30bb\u30f3\u30b9",
        "moWQ30GH": "1",
        "PEVks0h8": "1:20001",
        "E19X6kmB": "10200010,7060003",
        "X4mIT5Lc": "0",
        "P_EXT_IMG_PARAM": ""
    },
    {
        "c3prn4s7": "1096",
        "P_SKILL_NAME": "\u5931\u308f\u308c\u3057\u671b\u90f7",
        "moWQ30GH": "1",
        "PEVks0h8": "1:20010",
        "E19X6kmB": "45000010",
        "X4mIT5Lc": "0",
        "P_EXT_IMG_PARAM": ""
    },
    {
        "c3prn4s7": "1097",
        "P_SKILL_NAME": "\u7d99\u627f\u305b\u3057\u4f7f\u547d",
        "moWQ30GH": "1",
        "PEVks0h8": "1:10147",
        "E19X6kmB": "1015016,45000011",
        "X4mIT5Lc": "0",
        "P_EXT_IMG_PARAM": ""
    },
    {
        "c3prn4s7": "1098",
        "P_SKILL_NAME": "\u8aa0\u7fa9\u306e\u4fe1\u5ff5",
        "moWQ30GH": "1",
        "PEVks0h8": "1:20008",
        "E19X6kmB": "40000010",
        "X4mIT5Lc": "0",
        "P_EXT_IMG_PARAM": ""
    },
    {
        "c3prn4s7": "1099",
        "P_SKILL_NAME": "\u845b\u85e4\u3068\u6c7a\u610f",
        "moWQ30GH": "1",
        "PEVks0h8": "1:20004",
        "E19X6kmB": "45000013",
        "X4mIT5Lc": "0",
        "P_EXT_IMG_PARAM": ""
    },
    {
        "c3prn4s7": "1100",
        "P_SKILL_NAME": "\u60b2\u3057\u304d\u6c7a\u610f",
        "moWQ30GH": "1",
        "PEVks0h8": "1:20007",
        "E19X6kmB": "45000014,8016303",
        "X4mIT5Lc": "0",
        "P_EXT_IMG_PARAM": ""
    },
    {
        "c3prn4s7": "1101",
        "P_SKILL_NAME": "\u672a\u6765\u3078\u306e\u907a\u5fd7",
        "moWQ30GH": "1",
        "PEVks0h8": "1:20010",
        "E19X6kmB": "45000015",
        "X4mIT5Lc": "0",
        "P_EXT_IMG_PARAM": ""
    },
    {
        "c3prn4s7": "1102",
        "P_SKILL_NAME": "\u795e\u3092\u8cab\u304f\u4e00\u64f2",
        "moWQ30GH": "1",
        "PEVks0h8": "2:20008,2:15012",
        "E19X6kmB": "11001004,45000017",
        "X4mIT5Lc": "0",
        "P_EXT_IMG_PARAM": ""
    },
    {
        "c3prn4s7": "1103",
        "P_SKILL_NAME": "\u7a62\u308c\u3057\u6148\u611b",
        "moWQ30GH": "1",
        "PEVks0h8": "2:20010,2:20007",
        "E19X6kmB": "1015017,45000018",
        "X4mIT5Lc": "0",
        "P_EXT_IMG_PARAM": ""
    },
    {
        "c3prn4s7": "1104",
        "P_SKILL_NAME": "\u82f1\u96c4\u306e\u5c0e\u304d\u624b",
        "moWQ30GH": "1",
        "PEVks0h8": "2:10131,2:15013",
        "E19X6kmB": "1010100,5010017",
        "X4mIT5Lc": "0",
        "P_EXT_IMG_PARAM": ""
    },
    {
        "c3prn4s7": "1105",
        "P_SKILL_NAME": "\u795e\u3092\u5c60\u308a\u3057\u7adc",
        "moWQ30GH": "1",
        "PEVks0h8": "2:20010,2:15014",
        "E19X6kmB": "45000019",
        "X4mIT5Lc": "0",
        "P_EXT_IMG_PARAM": ""
    },
    {
        "c3prn4s7": "1106",
        "P_SKILL_NAME": "\u52c7\u7adc\u306e\u5c0e\u304d\u624b",
        "moWQ30GH": "1",
        "PEVks0h8": "2:20007,2:15015",
        "E19X6kmB": "1010101,5040027",
        "X4mIT5Lc": "0",
        "P_EXT_IMG_PARAM": ""
    },
    {
        "c3prn4s7": "1107",
        "P_SKILL_NAME": "\u4e0d\u5c48\u305f\u308b\u70c8\u5fd7",
        "moWQ30GH": "1",
        "PEVks0h8": "2:10148,2:20008",
        "E19X6kmB": "45000031",
        "X4mIT5Lc": "0",
        "P_EXT_IMG_PARAM": ""
    },
    {
        "c3prn4s7": "1108",
        "P_SKILL_NAME": "\u96c4\u9a0e\u58eb\u306e\u8f5f\u5486",
        "moWQ30GH": "1",
        "PEVks0h8": "2:10148,2:10132",
        "E19X6kmB": "45000032",
        "X4mIT5Lc": "0",
        "P_EXT_IMG_PARAM": ""
    },
    {
        "c3prn4s7": "1109",
        "P_SKILL_NAME": "\u738b\u306e\u7cfb\u8b5c",
        "moWQ30GH": "1",
        "PEVks0h8": "2:10148,2:20004",
        "E19X6kmB": "45000033",
        "X4mIT5Lc": "0",
        "P_EXT_IMG_PARAM": ""
    },
    {
        "c3prn4s7": "1110",
        "P_SKILL_NAME": "\u6b66\u4eba\u306e\u77dc\u6301",
        "moWQ30GH": "1",
        "PEVks0h8": "1:20010",
        "E19X6kmB": "45000034",
        "X4mIT5Lc": "0",
        "P_EXT_IMG_PARAM": ""
    },
    {
        "c3prn4s7": "1111",
        "P_SKILL_NAME": "\u6e67\u304d\u4e0a\u304c\u308b\u7814\u7a76\u5fc3",
        "moWQ30GH": "1",
        "PEVks0h8": "1:20004",
        "E19X6kmB": "1017105,5080011",
        "X4mIT5Lc": "0",
        "P_EXT_IMG_PARAM": ""
    },
    {
        "c3prn4s7": "1112",
        "P_SKILL_NAME": "\u52c7\u8e8d\u3059\u308b\u84bc\u9583",
        "moWQ30GH": "1",
        "PEVks0h8": "1:20008",
        "E19X6kmB": "11100003,5200100",
        "X4mIT5Lc": "0",
        "P_EXT_IMG_PARAM": ""
    },
    {
        "c3prn4s7": "1113",
        "P_SKILL_NAME": "\u795e\u8a0e\u306e\u5c04\u624b",
        "moWQ30GH": "1",
        "PEVks0h8": "1:20010",
        "E19X6kmB": "2010014,5070024",
        "X4mIT5Lc": "0",
        "P_EXT_IMG_PARAM": ""
    },
    {
        "c3prn4s7": "1114",
        "P_SKILL_NAME": "\u91cd\u306a\u308a\u5408\u3046\u65cb\u5f8b",
        "moWQ30GH": "1",
        "PEVks0h8": "1:10131",
        "E19X6kmB": "5010019,6010119",
        "X4mIT5Lc": "0",
        "P_EXT_IMG_PARAM": ""
    },
    {
        "c3prn4s7": "1115",
        "P_SKILL_NAME": "\u4e3b\u3078\u306e\u9ed9\u5f93",
        "moWQ30GH": "1",
        "PEVks0h8": "1:20007",
        "E19X6kmB": "45000035",
        "X4mIT5Lc": "0",
        "P_EXT_IMG_PARAM": ""
    },
    {
        "c3prn4s7": "1116",
        "P_SKILL_NAME": "\u81f3\u6975\u306e\u6cd5\u8853",
        "moWQ30GH": "1",
        "PEVks0h8": "1:20002",
        "E19X6kmB": "5200101,4060018",
        "X4mIT5Lc": "0",
        "P_EXT_IMG_PARAM": ""
    },
    {
        "c3prn4s7": "1117",
        "P_SKILL_NAME": "\u7570\u754c\u3078\u306e\u61a7\u61ac",
        "moWQ30GH": "1",
        "PEVks0h8": "1:20010",
        "E19X6kmB": "45000038",
        "X4mIT5Lc": "0",
        "P_EXT_IMG_PARAM": ""
    },
    {
        "c3prn4s7": "1118",
        "P_SKILL_NAME": "\u81ea\u7531\u306e\u7a7a",
        "moWQ30GH": "1",
        "PEVks0h8": "1:20004",
        "E19X6kmB": "5010024,2010020",
        "X4mIT5Lc": "0",
        "P_EXT_IMG_PARAM": ""
    },
    {
        "c3prn4s7": "1119",
        "P_SKILL_NAME": "\u9a0e\u58eb\u306e\u672c\u61d0",
        "moWQ30GH": "1",
        "PEVks0h8": "2:20010,2:20007",
        "E19X6kmB": "2010021,5100100",
        "X4mIT5Lc": "0",
        "P_EXT_IMG_PARAM": ""
    },
    {
        "c3prn4s7": "1120",
        "P_SKILL_NAME": "\u91d1\u6ac3\u306e\u5b88\u8b77\u8005",
        "moWQ30GH": "1",
        "PEVks0h8": "1:20002",
        "E19X6kmB": "45000039",
        "X4mIT5Lc": "0",
        "P_EXT_IMG_PARAM": ""
    },
    {
        "c3prn4s7": "1121",
        "P_SKILL_NAME": "\u53ec\u559a\u5e2b\u3068\u306e\u7d46",
        "moWQ30GH": "1",
        "PEVks0h8": "1:10131",
        "E19X6kmB": "8017006,6030022",
        "X4mIT5Lc": "0",
        "P_EXT_IMG_PARAM": ""
    },
    {
        "c3prn4s7": "1122",
        "P_SKILL_NAME": "\u6551\u754c\u306e\u82f1\u96c4",
        "moWQ30GH": "1",
        "PEVks0h8": "2:20004,2:20007",
        "E19X6kmB": "45000040",
        "X4mIT5Lc": "0",
        "P_EXT_IMG_PARAM": ""
    },
    {
        "c3prn4s7": "1123",
        "P_SKILL_NAME": "\u795e\u3092\u8d8a\u3048\u3057\u8005",
        "moWQ30GH": "1",
        "PEVks0h8": "1:20010",
        "E19X6kmB": "1015020,4010021,5010025",
        "X4mIT5Lc": "0",
        "P_EXT_IMG_PARAM": ""
    },
    {
        "c3prn4s7": "1124",
        "P_SKILL_NAME": "\u5bbf\u6028\u306e\u679c\u3066\u306b",
        "moWQ30GH": "1",
        "PEVks0h8": "1:20010",
        "E19X6kmB": "4020610,2010022",
        "X4mIT5Lc": "0",
        "P_EXT_IMG_PARAM": ""
    },
    {
        "c3prn4s7": "2000",
        "P_SKILL_NAME": "\u5929\u7a1f\u306a\u308b\u610f\u5fd7",
        "moWQ30GH": "1",
        "PEVks0h8": "2:10116,2:20008",
        "E19X6kmB": "1001100,2010011",
        "X4mIT5Lc": "0",
        "P_EXT_IMG_PARAM": ""
    },
    {
        "c3prn4s7": "2001",
        "P_SKILL_NAME": "\u9ad8\u8cb4\u306a\u308b\u7fa9\u52d9",
        "moWQ30GH": "1",
        "PEVks0h8": "2:10116,2:20007",
        "E19X6kmB": "1002011,5040028",
        "X4mIT5Lc": "0",
        "P_EXT_IMG_PARAM": ""
    },
    {
        "c3prn4s7": "2002",
        "P_SKILL_NAME": "\u7121\u8f9c\u306a\u308b\u732e\u8eab",
        "moWQ30GH": "1",
        "PEVks0h8": "2:10116,2:10131",
        "E19X6kmB": "1003012,6010115",
        "X4mIT5Lc": "0",
        "P_EXT_IMG_PARAM": ""
    },
    {
        "c3prn4s7": "2003",
        "P_SKILL_NAME": "\u6fc0\u70c8\u306a\u308b\u6069\u8b90",
        "moWQ30GH": "1",
        "PEVks0h8": "2:10116,2:10132",
        "E19X6kmB": "1004017,3010011",
        "X4mIT5Lc": "0",
        "P_EXT_IMG_PARAM": ""
    },
    {
        "c3prn4s7": "2004",
        "P_SKILL_NAME": "\u771f\u306a\u308b\u8ce2\u738b",
        "moWQ30GH": "1",
        "PEVks0h8": "2:10117,2:20010",
        "E19X6kmB": "4010015,5090100",
        "X4mIT5Lc": "0",
        "P_EXT_IMG_PARAM": ""
    },
    {
        "c3prn4s7": "2005",
        "P_SKILL_NAME": "\u9670\u967d\u306e\u53cc\u7114",
        "moWQ30GH": "1",
        "PEVks0h8": "2:10139,2:20004",
        "E19X6kmB": "1008012,5040031",
        "X4mIT5Lc": "0",
        "P_EXT_IMG_PARAM": ""
    },
    {
        "c3prn4s7": "2006",
        "P_SKILL_NAME": "\u5927\u6cb3\u30ce\u52a0\u8b77",
        "moWQ30GH": "1",
        "PEVks0h8": "2:10136,2:20010",
        "E19X6kmB": "10200011,4010016",
        "X4mIT5Lc": "0",
        "P_EXT_IMG_PARAM": ""
    },
    {
        "c3prn4s7": "2007",
        "P_SKILL_NAME": "\u9b54\u6027\u306e\u9023\u5f3e",
        "moWQ30GH": "1",
        "PEVks0h8": "2:10128,2:20008",
        "E19X6kmB": "4030004,2010012",
        "X4mIT5Lc": "0",
        "P_EXT_IMG_PARAM": ""
    },
    {
        "c3prn4s7": "2008",
        "P_SKILL_NAME": "\u7121\u9650\u306e\u9b54\u529b",
        "moWQ30GH": "1",
        "PEVks0h8": "2:10130,2:20010",
        "E19X6kmB": "5010018,4050100",
        "X4mIT5Lc": "0",
        "P_EXT_IMG_PARAM": ""
    },
    {
        "c3prn4s7": "2009",
        "P_SKILL_NAME": "\u81f3\u8056\u306e\u6551\u5149",
        "moWQ30GH": "1",
        "PEVks0h8": "2:10143,2:10131",
        "E19X6kmB": "6010116,8017800",
        "X4mIT5Lc": "0",
        "P_EXT_IMG_PARAM": ""
    },
    {
        "c3prn4s7": "2010",
        "P_SKILL_NAME": "\u6020\u9b54\u306e\u53e1\u8b58",
        "moWQ30GH": "1",
        "PEVks0h8": "2:10144,2:20002",
        "E19X6kmB": "5080010,4050101",
        "X4mIT5Lc": "0",
        "P_EXT_IMG_PARAM": ""
    },
    {
        "c3prn4s7": "2011",
        "P_SKILL_NAME": "\u672a\u6765\u3078\u306e\u4fe1\u5ff5",
        "moWQ30GH": "1",
        "PEVks0h8": "2:10118,2:20010",
        "E19X6kmB": "1001101,45000020",
        "X4mIT5Lc": "0",
        "P_EXT_IMG_PARAM": ""
    },
    {
        "c3prn4s7": "2012",
        "P_SKILL_NAME": "\u53cb\u3092\u5b88\u308b\u60f3\u3044",
        "moWQ30GH": "1",
        "PEVks0h8": "2:10118,2:10131",
        "E19X6kmB": "1003013,45000021",
        "X4mIT5Lc": "0",
        "P_EXT_IMG_PARAM": ""
    },
    {
        "c3prn4s7": "2013",
        "P_SKILL_NAME": "\u65b0\u305f\u306a\u308b\u5883\u5730",
        "moWQ30GH": "1",
        "PEVks0h8": "2:10118,2:20007",
        "E19X6kmB": "1002012,45000029",
        "X4mIT5Lc": "0",
        "P_EXT_IMG_PARAM": ""
    },
    {
        "c3prn4s7": "2014",
        "P_SKILL_NAME": "\u5929\u3092\u8cab\u304f\u96f7\u5149",
        "moWQ30GH": "1",
        "PEVks0h8": "2:10118,2:20004",
        "E19X6kmB": "1001102,45000023",
        "X4mIT5Lc": "0",
        "P_EXT_IMG_PARAM": ""
    },
    {
        "c3prn4s7": "2015",
        "P_SKILL_NAME": "\u5341\u7ffc\u306e\u7834\u58ca\u8005",
        "moWQ30GH": "1",
        "PEVks0h8": "1:20000",
        "E19X6kmB": "1015018,45000024",
        "X4mIT5Lc": "0",
        "P_EXT_IMG_PARAM": ""
    },
    {
        "c3prn4s7": "2016",
        "P_SKILL_NAME": "\u4fe1\u7fa9\u306e\u6a5f\u68b0\u4eba\u5f62",
        "moWQ30GH": "1",
        "PEVks0h8": "2:10118,2:10132",
        "E19X6kmB": "1004018,45000025",
        "X4mIT5Lc": "0",
        "P_EXT_IMG_PARAM": ""
    },
    {
        "c3prn4s7": "2017",
        "P_SKILL_NAME": "\u30b8\u30eb\u30fb\u30c7\u30fb\u30e9\u30fc\u30f4\u30a1",
        "moWQ30GH": "1",
        "PEVks0h8": "1",
        "E19X6kmB": "11000500",
        "X4mIT5Lc": "0",
        "P_EXT_IMG_PARAM": ""
    },
    {
        "c3prn4s7": "2018",
        "P_SKILL_NAME": "\u6bb2\u4f0f\u306e\u9b54\u76fe",
        "moWQ30GH": "1",
        "PEVks0h8": "2:10129,2:20007",
        "E19X6kmB": "1002013,5040033",
        "X4mIT5Lc": "0",
        "P_EXT_IMG_PARAM": ""
    },
    {
        "c3prn4s7": "2019",
        "P_SKILL_NAME": "\u9e97\u9583\u306e\u9b54\u5263",
        "moWQ30GH": "1",
        "PEVks0h8": "2:10129,2:20008",
        "E19X6kmB": "1001103,2010013",
        "X4mIT5Lc": "0",
        "P_EXT_IMG_PARAM": ""
    },
    {
        "c3prn4s7": "2020",
        "P_SKILL_NAME": "\u5cfb\u8c8c\u306a\u308b\u9b54\u93a7",
        "moWQ30GH": "1",
        "PEVks0h8": "2:10129,2:10131",
        "E19X6kmB": "1004019,6010118",
        "X4mIT5Lc": "0",
        "P_EXT_IMG_PARAM": ""
    },
    {
        "c3prn4s7": "2021",
        "P_SKILL_NAME": "\u672a\u3060\u77e5\u3089\u306a\u3044\u4e16\u754c\u3078",
        "moWQ30GH": "1",
        "PEVks0h8": "2:10135,2:20001",
        "E19X6kmB": "7050013,7060004",
        "X4mIT5Lc": "0",
        "P_EXT_IMG_PARAM": ""
    },
    {
        "c3prn4s7": "2022",
        "P_SKILL_NAME": "\u5947\u8de1\u3092\u9858\u3046\u529b",
        "moWQ30GH": "1",
        "PEVks0h8": "2:10135,2:20004",
        "E19X6kmB": "5010021,5050017",
        "X4mIT5Lc": "0",
        "P_EXT_IMG_PARAM": ""
    },
    {
        "c3prn4s7": "2023",
        "P_SKILL_NAME": "\u5fc3\u3092\u958b\u304f\u8a00\u8449",
        "moWQ30GH": "1",
        "PEVks0h8": "2:10135,2:20002",
        "E19X6kmB": "6060011,4060017",
        "X4mIT5Lc": "0",
        "P_EXT_IMG_PARAM": ""
    },
    {
        "c3prn4s7": "2024",
        "P_SKILL_NAME": "\u96f2\u3092\u8cab\u304f\u60f3\u3044",
        "moWQ30GH": "1",
        "PEVks0h8": "2:10135,2:20010",
        "E19X6kmB": "4010018,4030005",
        "X4mIT5Lc": "0",
        "P_EXT_IMG_PARAM": ""
    },
    {
        "c3prn4s7": "2025",
        "P_SKILL_NAME": "\u8a8d\u8b58\u306a\u304d\u81ea\u6211",
        "moWQ30GH": "1",
        "PEVks0h8": "2:10123,2:20010",
        "E19X6kmB": "1001104,4010017",
        "X4mIT5Lc": "0",
        "P_EXT_IMG_PARAM": ""
    },
    {
        "c3prn4s7": "2026",
        "P_SKILL_NAME": "\u610f\u5fd7\u306a\u304d\u5263",
        "moWQ30GH": "1",
        "PEVks0h8": "2:10123,2:20008",
        "E19X6kmB": "1001105,2010015",
        "X4mIT5Lc": "0",
        "P_EXT_IMG_PARAM": ""
    },
    {
        "c3prn4s7": "2027",
        "P_SKILL_NAME": "\u304b\u306e\u548e\u306b\u7f6a\u306f\u7121\u3057",
        "moWQ30GH": "1",
        "PEVks0h8": "2:10123,2:20010",
        "E19X6kmB": "3010013,3020017",
        "X4mIT5Lc": "0",
        "P_EXT_IMG_PARAM": ""
    },
    {
        "c3prn4s7": "2028",
        "P_SKILL_NAME": "\u52b1\u708e\u306e\u52c7\u58eb",
        "moWQ30GH": "1",
        "PEVks0h8": "2:10119,2:20004",
        "E19X6kmB": "5010020,10020100",
        "X4mIT5Lc": "0",
        "P_EXT_IMG_PARAM": ""
    },
    {
        "c3prn4s7": "2029",
        "P_SKILL_NAME": "\u7fe0\u5fc3\u306e\u5200\u9798",
        "moWQ30GH": "1",
        "PEVks0h8": "2:10120,2:20008",
        "E19X6kmB": "1001106,5080012",
        "X4mIT5Lc": "0",
        "P_EXT_IMG_PARAM": ""
    },
    {
        "c3prn4s7": "2030",
        "P_SKILL_NAME": "\u5b64\u92ed\u306e\u8056\u9280",
        "moWQ30GH": "1",
        "PEVks0h8": "2:10124,2:20007",
        "E19X6kmB": "1015019,10300200",
        "X4mIT5Lc": "0",
        "P_EXT_IMG_PARAM": ""
    },
    {
        "c3prn4s7": "2031",
        "P_SKILL_NAME": "\u6cf0\u96c4\u306e\u7956\u6a39",
        "moWQ30GH": "1",
        "PEVks0h8": "1:20004",
        "E19X6kmB": "10002011,8017005",
        "X4mIT5Lc": "0",
        "P_EXT_IMG_PARAM": ""
    },
    {
        "c3prn4s7": "2032",
        "P_SKILL_NAME": "\u9b54\u5200\u89e3\u653e",
        "moWQ30GH": "1",
        "PEVks0h8": "1:10115",
        "E19X6kmB": "1019307",
        "X4mIT5Lc": "0",
        "P_EXT_IMG_PARAM": ""
    },
    {
        "c3prn4s7": "2033",
        "P_SKILL_NAME": "\u661f\u8aad\u307f\u306e\u9e97\u624d",
        "moWQ30GH": "1",
        "PEVks0h8": "2:15016,2:10131",
        "E19X6kmB": "45000036",
        "X4mIT5Lc": "0",
        "P_EXT_IMG_PARAM": ""
    },
    {
        "c3prn4s7": "2034",
        "P_SKILL_NAME": "\u71c3\u3048\u4e0a\u304c\u308b\u610f\u5fd7",
        "moWQ30GH": "1",
        "PEVks0h8": "2:10131,2:10134",
        "E19X6kmB": "5010022,5080005",
        "X4mIT5Lc": "0",
        "P_EXT_IMG_PARAM": ""
    },
    {
        "c3prn4s7": "2035",
        "P_SKILL_NAME": "\u65b0\u305f\u306a\u308b\u82f1\u96c4",
        "moWQ30GH": "1",
        "PEVks0h8": "2:10132,2:10133",
        "E19X6kmB": "3010014,5070009",
        "X4mIT5Lc": "0",
        "P_EXT_IMG_PARAM": ""
    },
    {
        "c3prn4s7": "2036",
        "P_SKILL_NAME": "\u30b7\u30ca\u30d7\u30b9\u5149\u5316",
        "moWQ30GH": "1",
        "PEVks0h8": "2:20004,2:15007",
        "E19X6kmB": "5070013,2010018",
        "X4mIT5Lc": "0",
        "P_EXT_IMG_PARAM": ""
    },
    {
        "c3prn4s7": "2037",
        "P_SKILL_NAME": "\u80f8\u306b\u79d8\u3081\u308b\u6b63\u7fa9",
        "moWQ30GH": "1",
        "PEVks0h8": "1:20010",
        "E19X6kmB": "4010012,4040100",
        "X4mIT5Lc": "0",
        "P_EXT_IMG_PARAM": ""
    },
    {
        "c3prn4s7": "2038",
        "P_SKILL_NAME": "\u30d9\u30eb\u30c7\u30f3\u30c8\u306e\u81f3\u5b9d",
        "moWQ30GH": "1",
        "PEVks0h8": "1:10131",
        "E19X6kmB": "8016103,5010023",
        "X4mIT5Lc": "0",
        "P_EXT_IMG_PARAM": ""
    },
    {
        "c3prn4s7": "2039",
        "P_SKILL_NAME": "\u59eb\u541b\u306e\u5fe0\u5263",
        "moWQ30GH": "1",
        "PEVks0h8": "1:20001",
        "E19X6kmB": "7050006,4030006",
        "X4mIT5Lc": "0",
        "P_EXT_IMG_PARAM": ""
    },
    {
        "c3prn4s7": "2040",
        "P_SKILL_NAME": "\u679c\u3066\u306a\u304d\u5fe0\u5949",
        "moWQ30GH": "1",
        "PEVks0h8": "2:20008,2:15010",
        "E19X6kmB": "5070018,2010019",
        "X4mIT5Lc": "0",
        "P_EXT_IMG_PARAM": ""
    },
    {
        "c3prn4s7": "2041",
        "P_SKILL_NAME": "\u5922\u898b\u305f\u30bb\u30ab\u30a4",
        "moWQ30GH": "1",
        "PEVks0h8": "1:10121",
        "E19X6kmB": "2020100",
        "X4mIT5Lc": "0",
        "P_EXT_IMG_PARAM": ""
    },
    {
        "c3prn4s7": "2042",
        "P_SKILL_NAME": "\u6e05\u5ec9\u306b\u821e\u3046\u5263",
        "moWQ30GH": "1",
        "PEVks0h8": "1:10122",
        "E19X6kmB": "8017601",
        "X4mIT5Lc": "0",
        "P_EXT_IMG_PARAM": ""
    },
    {
        "c3prn4s7": "2043",
        "P_SKILL_NAME": "\u8987\u8005\u3092\u671b\u3080\u529b",
        "moWQ30GH": "1",
        "PEVks0h8": "1:10121",
        "E19X6kmB": "3020018",
        "X4mIT5Lc": "0",
        "P_EXT_IMG_PARAM": ""
    },
    {
        "c3prn4s7": "2044",
        "P_SKILL_NAME": "\u5922\u5e7b\u306e\u7406\u60f3",
        "moWQ30GH": "1",
        "PEVks0h8": "1:10122",
        "E19X6kmB": "8018401",
        "X4mIT5Lc": "0",
        "P_EXT_IMG_PARAM": ""
    },
    {
        "c3prn4s7": "2045",
        "P_SKILL_NAME": "\u6f70\u3048\u306c\u5e0c\u671b",
        "moWQ30GH": "1",
        "PEVks0h8": "1:10122",
        "E19X6kmB": "8018501",
        "X4mIT5Lc": "0",
        "P_EXT_IMG_PARAM": ""
    },
    {
        "c3prn4s7": "2046",
        "P_SKILL_NAME": "\u66b4\u8650\u3078\u306e\u9676\u9154",
        "moWQ30GH": "1",
        "PEVks0h8": "1:10132",
        "E19X6kmB": "3010008,3020019",
        "X4mIT5Lc": "0",
        "P_EXT_IMG_PARAM": ""
    },
    {
        "c3prn4s7": "2047",
        "P_SKILL_NAME": "\u55dc\u8650\u3078\u306e\u6b32\u6c42",
        "moWQ30GH": "1",
        "PEVks0h8": "1:20002",
        "E19X6kmB": "4060019",
        "X4mIT5Lc": "0",
        "P_EXT_IMG_PARAM": ""
    },
    {
        "c3prn4s7": "2048",
        "P_SKILL_NAME": "\u72c2\u5984\u3059\u308b\u611b\u60c5",
        "moWQ30GH": "1",
        "PEVks0h8": "1:20002",
        "E19X6kmB": "5050018",
        "X4mIT5Lc": "0",
        "P_EXT_IMG_PARAM": ""
    },
    {
        "c3prn4s7": "2049",
        "P_SKILL_NAME": "\u95d8\u4e89\u3078\u306e\u6e07\u671b",
        "moWQ30GH": "1",
        "PEVks0h8": "1:20010",
        "E19X6kmB": "4010022",
        "X4mIT5Lc": "0",
        "P_EXT_IMG_PARAM": ""
    },
    {
        "c3prn4s7": "2050",
        "P_SKILL_NAME": "\u6b6a\u307f\u3057\u6c42\u9053",
        "moWQ30GH": "1",
        "PEVks0h8": "1:20004",
        "E19X6kmB": "5010026",
        "X4mIT5Lc": "0",
        "P_EXT_IMG_PARAM": ""
    },
    {
        "c3prn4s7": "2051",
        "P_SKILL_NAME": "\u795e\u69cd\u30cd\u30b0\u30aa\u30fc\u30cd\u306e\u708e\u64c1",
        "moWQ30GH": "1",
        "PEVks0h8": "2:20008,2:15000",
        "E19X6kmB": "5070026",
        "X4mIT5Lc": "0",
        "P_EXT_IMG_PARAM": ""
    },
    {
        "c3prn4s7": "2052",
        "P_SKILL_NAME": "\u795e\u5263\u30b5\u30ea\u30e5\u30aa\u30f3\u306e\u6e05\u5f8b",
        "moWQ30GH": "1",
        "PEVks0h8": "2:10132,2:15001",
        "E19X6kmB": "3020020",
        "X4mIT5Lc": "0",
        "P_EXT_IMG_PARAM": ""
    },
    {
        "c3prn4s7": "2053",
        "P_SKILL_NAME": "\u795e\u5263\u30bc\u30d5\u30a1\u30ea\u30a2\u306e\u661f\u98a8",
        "moWQ30GH": "1",
        "PEVks0h8": "2:15002,2:15001",
        "E19X6kmB": "4010301",
        "X4mIT5Lc": "0",
        "P_EXT_IMG_PARAM": ""
    },
    {
        "c3prn4s7": "2054",
        "P_SKILL_NAME": "\u795e\u5263\u30ec\u30f4\u30a3\u30a2\u30f3\u30b9\u306e\u523b\u9e97",
        "moWQ30GH": "1",
        "PEVks0h8": "2:20004,2:15003",
        "E19X6kmB": "5010027",
        "X4mIT5Lc": "0",
        "P_EXT_IMG_PARAM": ""
    },
    {
        "c3prn4s7": "2055",
        "P_SKILL_NAME": "\u795e\u6756\u30ed\u30fc\u30e0\u30fb\u30ed\u30fc\u30c9\u306e\u6e90\u53e1",
        "moWQ30GH": "1",
        "PEVks0h8": "2:10131,2:15004",
        "E19X6kmB": "1003014",
        "X4mIT5Lc": "0",
        "P_EXT_IMG_PARAM": ""
    },
    {
        "c3prn4s7": "2056",
        "P_SKILL_NAME": "\u7345\u5b50\u306e\u8a87\u308a",
        "moWQ30GH": "1",
        "PEVks0h8": "1:20010",
        "E19X6kmB": "45000006",
        "X4mIT5Lc": "0",
        "P_EXT_IMG_PARAM": ""
    },
    {
        "c3prn4s7": "2057",
        "P_SKILL_NAME": "\u51db\u7136\u305f\u308b\u59c9",
        "moWQ30GH": "1",
        "PEVks0h8": "2:10132,2:15006",
        "E19X6kmB": "3020016",
        "X4mIT5Lc": "0",
        "P_EXT_IMG_PARAM": ""
    },
    {
        "c3prn4s7": "2058",
        "P_SKILL_NAME": "\u5929\u771f\u305f\u308b\u59b9",
        "moWQ30GH": "1",
        "PEVks0h8": "2:20004,2:15005",
        "E19X6kmB": "5010028",
        "X4mIT5Lc": "0",
        "P_EXT_IMG_PARAM": ""
    },
    {
        "c3prn4s7": "2059",
        "P_SKILL_NAME": "\u4e03\u3064\u3081\u306e\u93a7",
        "moWQ30GH": "1",
        "PEVks0h8": "1",
        "E19X6kmB": "6030021",
        "X4mIT5Lc": "0",
        "P_EXT_IMG_PARAM": ""
    },
    {
        "c3prn4s7": "2060",
        "P_SKILL_NAME": "\u73a9\u5f04\u3059\u308b\u60aa\u610f",
        "moWQ30GH": "1",
        "PEVks0h8": "2:20002,2:20004",
        "E19X6kmB": "10200007,5040019",
        "X4mIT5Lc": "0",
        "P_EXT_IMG_PARAM": ""
    },
    {
        "c3prn4s7": "2061",
        "P_SKILL_NAME": "\u7570\u754c\u3078\u306e\u61a7\u61ac",
        "moWQ30GH": "1",
        "PEVks0h8": "1:20010",
        "E19X6kmB": "45000038",
        "X4mIT5Lc": "0",
        "P_EXT_IMG_PARAM": ""
    },
    {
        "c3prn4s7": "2062",
        "P_SKILL_NAME": "\u81ea\u7531\u306e\u7a7a",
        "moWQ30GH": "1",
        "PEVks0h8": "1:20004",
        "E19X6kmB": "5010024,2010020",
        "X4mIT5Lc": "0",
        "P_EXT_IMG_PARAM": ""
    },
    {
        "c3prn4s7": "2063",
        "P_SKILL_NAME": "\u9a0e\u58eb\u306e\u672c\u61d0",
        "moWQ30GH": "1",
        "PEVks0h8": "2:20010,2:20007",
        "E19X6kmB": "2010021,5100100",
        "X4mIT5Lc": "0",
        "P_EXT_IMG_PARAM": ""
    },
    {
        "c3prn4s7": "2064",
        "P_SKILL_NAME": "\u91d1\u6ac3\u306e\u5b88\u8b77\u8005",
        "moWQ30GH": "1",
        "PEVks0h8": "1:20002",
        "E19X6kmB": "45000039",
        "X4mIT5Lc": "0",
        "P_EXT_IMG_PARAM": ""
    },
    {
        "c3prn4s7": "2065",
        "P_SKILL_NAME": "\u53ec\u559a\u5e2b\u3068\u306e\u7d46",
        "moWQ30GH": "1",
        "PEVks0h8": "1:10131",
        "E19X6kmB": "8017006,6030022",
        "X4mIT5Lc": "0",
        "P_EXT_IMG_PARAM": ""
    },
    {
        "c3prn4s7": "2066",
        "P_SKILL_NAME": "\u6551\u754c\u306e\u82f1\u96c4",
        "moWQ30GH": "1",
        "PEVks0h8": "2:20004,2:20007",
        "E19X6kmB": "45000040",
        "X4mIT5Lc": "0",
        "P_EXT_IMG_PARAM": ""
    },
    {
        "c3prn4s7": "2067",
        "P_SKILL_NAME": "\u795e\u3092\u8d8a\u3048\u3057\u8005",
        "moWQ30GH": "1",
        "PEVks0h8": "1:20010",
        "E19X6kmB": "1015020,4010021,5010025",
        "X4mIT5Lc": "0",
        "P_EXT_IMG_PARAM": ""
    },
    {
        "c3prn4s7": "2068",
        "P_SKILL_NAME": "\u5bbf\u6028\u306e\u679c\u3066\u306b",
        "moWQ30GH": "1",
        "PEVks0h8": "1:20010",
        "E19X6kmB": "4020610,2010022",
        "X4mIT5Lc": "0",
        "P_EXT_IMG_PARAM": ""
    },
    {
        "c3prn4s7": "10000",
        "P_SKILL_NAME": "\u6226\u5203\u523b",
        "moWQ30GH": "1",
        "PEVks0h8": "1",
        "E19X6kmB": "1001001",
        "X4mIT5Lc": "1",
        "P_EXT_IMG_PARAM": ""
    },
    {
        "c3prn4s7": "10100",
        "P_SKILL_NAME": "\u885b\u969c\u523b",
        "moWQ30GH": "1",
        "PEVks0h8": "1",
        "E19X6kmB": "1002001",
        "X4mIT5Lc": "1",
        "P_EXT_IMG_PARAM": ""
    },
    {
        "c3prn4s7": "10200",
        "P_SKILL_NAME": "\u885b\u9b54\u523b",
        "moWQ30GH": "1",
        "PEVks0h8": "1",
        "E19X6kmB": "1003001",
        "X4mIT5Lc": "1",
        "P_EXT_IMG_PARAM": ""
    },
    {
        "c3prn4s7": "10300",
        "P_SKILL_NAME": "\u7cbe\u52d5\u523b",
        "moWQ30GH": "1",
        "PEVks0h8": "1",
        "E19X6kmB": "1004001",
        "X4mIT5Lc": "1",
        "P_EXT_IMG_PARAM": ""
    },
    {
        "c3prn4s7": "10400",
        "P_SKILL_NAME": "\u30d0\u30eb\u30ca\u30c9\u306e\u5984\u7159",
        "moWQ30GH": "1",
        "PEVks0h8": "1",
        "E19X6kmB": "1008001,1000102",
        "X4mIT5Lc": "1",
        "P_EXT_IMG_PARAM": ""
    },
    {
        "c3prn4s7": "10500",
        "P_SKILL_NAME": "\u30a2\u30df\u30ec\u30aa\u30b9\u306e\u5f57\u5208",
        "moWQ30GH": "1",
        "PEVks0h8": "1",
        "E19X6kmB": "1019001",
        "X4mIT5Lc": "1",
        "P_EXT_IMG_PARAM": ""
    },
    {
        "c3prn4s7": "10600",
        "P_SKILL_NAME": "\u6c37\u52c7\u306e\u6559\u5c3d",
        "moWQ30GH": "1",
        "PEVks0h8": "1",
        "E19X6kmB": "1016050",
        "X4mIT5Lc": "1",
        "P_EXT_IMG_PARAM": ""
    },
    {
        "c3prn4s7": "10800",
        "P_SKILL_NAME": "\u7345\u8056\u523b",
        "moWQ30GH": "1",
        "PEVks0h8": "1",
        "E19X6kmB": "1011011",
        "X4mIT5Lc": "1",
        "P_EXT_IMG_PARAM": ""
    },
    {
        "c3prn4s7": "10900",
        "P_SKILL_NAME": "\u6c34\u7adc\u306e\u547d\u7011",
        "moWQ30GH": "1",
        "PEVks0h8": "1",
        "E19X6kmB": "1018300,12000101",
        "X4mIT5Lc": "1",
        "P_EXT_IMG_PARAM": ""
    },
    {
        "c3prn4s7": "11000",
        "P_SKILL_NAME": "\u543c\u5929\u306e\u71b1\u7159",
        "moWQ30GH": "1",
        "PEVks0h8": "1",
        "E19X6kmB": "1001001,2010001",
        "X4mIT5Lc": "1",
        "P_EXT_IMG_PARAM": ""
    },
    {
        "c3prn4s7": "11100",
        "P_SKILL_NAME": "\u731b\u5a01\u306e\u7cbe\u52d5",
        "moWQ30GH": "1",
        "PEVks0h8": "1",
        "E19X6kmB": "1004001,11080007",
        "X4mIT5Lc": "1",
        "P_EXT_IMG_PARAM": ""
    },
    {
        "c3prn4s7": "11200",
        "P_SKILL_NAME": "\u885b\u96ea\u7e8f",
        "moWQ30GH": "1",
        "PEVks0h8": "1",
        "E19X6kmB": "1002002,1003002",
        "X4mIT5Lc": "1",
        "P_EXT_IMG_PARAM": ""
    },
    {
        "c3prn4s7": "11300",
        "P_SKILL_NAME": "\u5168\u52b1\u5f71\u523b",
        "moWQ30GH": "1",
        "PEVks0h8": "1",
        "E19X6kmB": "1015001,6060007",
        "X4mIT5Lc": "1",
        "P_EXT_IMG_PARAM": ""
    },
    {
        "c3prn4s7": "11400",
        "P_SKILL_NAME": "\u525b\u7345\u306e\u7149\u722a",
        "moWQ30GH": "1",
        "PEVks0h8": "1",
        "E19X6kmB": "1001002,1004002,4040001",
        "X4mIT5Lc": "1",
        "P_EXT_IMG_PARAM": ""
    },
    {
        "c3prn4s7": "11500",
        "P_SKILL_NAME": "\u5168\u714c\u5fb4",
        "moWQ30GH": "1",
        "PEVks0h8": "1",
        "E19X6kmB": "1015003,5040014,6030018",
        "X4mIT5Lc": "1",
        "P_EXT_IMG_PARAM": ""
    },
    {
        "c3prn4s7": "11700",
        "P_SKILL_NAME": "\u52c7\u5c3d\u523b",
        "moWQ30GH": "1",
        "PEVks0h8": "1",
        "E19X6kmB": "1015001,2010003,5070006",
        "X4mIT5Lc": "1",
        "P_EXT_IMG_PARAM": ""
    },
    {
        "c3prn4s7": "11800",
        "P_SKILL_NAME": "\u970a\u767d\u6676",
        "moWQ30GH": "1",
        "PEVks0h8": "1",
        "E19X6kmB": "1016070,1018802",
        "X4mIT5Lc": "1",
        "P_EXT_IMG_PARAM": ""
    },
    {
        "c3prn4s7": "11900",
        "P_SKILL_NAME": "\u5e7b\u78e8\u6226\u98a8",
        "moWQ30GH": "1",
        "PEVks0h8": "1",
        "E19X6kmB": "1015004,10200009,10300008,45000016",
        "X4mIT5Lc": "1",
        "P_EXT_IMG_PARAM": ""
    },
    {
        "c3prn4s7": "12000",
        "P_SKILL_NAME": "\u6d77\u6df5\u7901",
        "moWQ30GH": "1",
        "PEVks0h8": "1",
        "E19X6kmB": "1004014,10002010",
        "X4mIT5Lc": "1",
        "P_EXT_IMG_PARAM": ""
    },
    {
        "c3prn4s7": "12100",
        "P_SKILL_NAME": "\u6f38\u932c\u306e\u731b\u6602",
        "moWQ30GH": "1",
        "PEVks0h8": "1",
        "E19X6kmB": "1030103,5010001",
        "X4mIT5Lc": "1",
        "P_EXT_IMG_PARAM": ""
    },
    {
        "c3prn4s7": "12200",
        "P_SKILL_NAME": "\u9b54\u8a60\u306e\u5e7b\u58ee\u754c",
        "moWQ30GH": "1",
        "PEVks0h8": "1",
        "E19X6kmB": "1010002,10001002,6030010",
        "X4mIT5Lc": "1",
        "P_EXT_IMG_PARAM": ""
    },
    {
        "c3prn4s7": "12300",
        "P_SKILL_NAME": "\u5168\u80fd\u795e\u6388",
        "moWQ30GH": "1",
        "PEVks0h8": "1",
        "E19X6kmB": "1015001,4010000,4020701",
        "X4mIT5Lc": "1",
        "P_EXT_IMG_PARAM": ""
    },
    {
        "c3prn4s7": "12400",
        "P_SKILL_NAME": "\u967d\u306e\u9ed9\u58c1",
        "moWQ30GH": "1",
        "PEVks0h8": "1",
        "E19X6kmB": "10019000,1008002",
        "X4mIT5Lc": "1",
        "P_EXT_IMG_PARAM": ""
    },
    {
        "c3prn4s7": "12500",
        "P_SKILL_NAME": "\u5f71\u306e\u5a01\u7fd4",
        "moWQ30GH": "1",
        "PEVks0h8": "1",
        "E19X6kmB": "10019100,1001002",
        "X4mIT5Lc": "1",
        "P_EXT_IMG_PARAM": ""
    },
    {
        "c3prn4s7": "20000",
        "P_SKILL_NAME": "\u91cd\u6fc0\u306e\u7834\u5203",
        "moWQ30GH": "1",
        "PEVks0h8": "1",
        "E19X6kmB": "2010001",
        "X4mIT5Lc": "1",
        "P_EXT_IMG_PARAM": ""
    },
    {
        "c3prn4s7": "20001",
        "P_SKILL_NAME": "\u5e7e\u5343\u306e\u9583\u5149",
        "moWQ30GH": "1",
        "PEVks0h8": "1",
        "E19X6kmB": "2010000,2050000",
        "X4mIT5Lc": "1",
        "P_EXT_IMG_PARAM": ""
    },
    {
        "c3prn4s7": "20100",
        "P_SKILL_NAME": "\u91cd\u6fc0\u306e\u70c8\u6676",
        "moWQ30GH": "1",
        "PEVks0h8": "1",
        "E19X6kmB": "2020001",
        "X4mIT5Lc": "1",
        "P_EXT_IMG_PARAM": ""
    },
    {
        "c3prn4s7": "20200",
        "P_SKILL_NAME": "\u7a7a\u8cca\u306e\u4fa0\u8a87",
        "moWQ30GH": "1",
        "PEVks0h8": "1",
        "E19X6kmB": "5070005,2020000",
        "X4mIT5Lc": "1",
        "P_EXT_IMG_PARAM": ""
    },
    {
        "c3prn4s7": "20400",
        "P_SKILL_NAME": "\u91cd\u6fc0\u306e\u9ed2\u6676",
        "moWQ30GH": "1",
        "PEVks0h8": "1",
        "E19X6kmB": "2020001,2030001",
        "X4mIT5Lc": "1",
        "P_EXT_IMG_PARAM": ""
    },
    {
        "c3prn4s7": "20500",
        "P_SKILL_NAME": "\u91cd\u708e\u306e\u9aed",
        "moWQ30GH": "1",
        "PEVks0h8": "1",
        "E19X6kmB": "2010002,5030001",
        "X4mIT5Lc": "1",
        "P_EXT_IMG_PARAM": ""
    },
    {
        "c3prn4s7": "20600",
        "P_SKILL_NAME": "\u9583\u8840\u306e\u76c3",
        "moWQ30GH": "1",
        "PEVks0h8": "1",
        "E19X6kmB": "2010001,3010000,11080016",
        "X4mIT5Lc": "1",
        "P_EXT_IMG_PARAM": ""
    },
    {
        "c3prn4s7": "30000",
        "P_SKILL_NAME": "\u9583\u6483\u306e\u70c8\u5149",
        "moWQ30GH": "1",
        "PEVks0h8": "1",
        "E19X6kmB": "3010005",
        "X4mIT5Lc": "1",
        "P_EXT_IMG_PARAM": ""
    },
    {
        "c3prn4s7": "30001",
        "P_SKILL_NAME": "\u9583\u6483\u306e\u71be\u5149",
        "moWQ30GH": "1",
        "PEVks0h8": "1",
        "E19X6kmB": "3010000",
        "X4mIT5Lc": "1",
        "P_EXT_IMG_PARAM": ""
    },
    {
        "c3prn4s7": "30100",
        "P_SKILL_NAME": "\u9583\u6483\u306e\u5149\u5203",
        "moWQ30GH": "1",
        "PEVks0h8": "1",
        "E19X6kmB": "3020006",
        "X4mIT5Lc": "1",
        "P_EXT_IMG_PARAM": ""
    },
    {
        "c3prn4s7": "30200",
        "P_SKILL_NAME": "\u9583\u6483\u306e\u6c37\u6144",
        "moWQ30GH": "1",
        "PEVks0h8": "1",
        "E19X6kmB": "3010000,11080008",
        "X4mIT5Lc": "1",
        "P_EXT_IMG_PARAM": ""
    },
    {
        "c3prn4s7": "30300",
        "P_SKILL_NAME": "\u9583\u6f70\u5727",
        "moWQ30GH": "1",
        "PEVks0h8": "1",
        "E19X6kmB": "3010000,1004014",
        "X4mIT5Lc": "1",
        "P_EXT_IMG_PARAM": ""
    },
    {
        "c3prn4s7": "40000",
        "P_SKILL_NAME": "\u6c34\u7adc\u306e\u52e2\u5a01",
        "moWQ30GH": "1",
        "PEVks0h8": "1",
        "E19X6kmB": "4010001",
        "X4mIT5Lc": "1",
        "P_EXT_IMG_PARAM": ""
    },
    {
        "c3prn4s7": "40001",
        "P_SKILL_NAME": "\u95d8\u6804\u306e\u52e2\u5a01",
        "moWQ30GH": "1",
        "PEVks0h8": "1",
        "E19X6kmB": "4010000,6060004",
        "X4mIT5Lc": "1",
        "P_EXT_IMG_PARAM": ""
    },
    {
        "c3prn4s7": "40100",
        "P_SKILL_NAME": "\u6226\u5a01\u306e\u547d\u8f1d",
        "moWQ30GH": "1",
        "PEVks0h8": "1",
        "E19X6kmB": "4010002,1008102",
        "X4mIT5Lc": "1",
        "P_EXT_IMG_PARAM": ""
    },
    {
        "c3prn4s7": "40200",
        "P_SKILL_NAME": "\u30a2\u30df\u30ec\u30aa\u30b9\u306e\u9298\u7d50",
        "moWQ30GH": "1",
        "PEVks0h8": "1",
        "E19X6kmB": "4010203",
        "X4mIT5Lc": "1",
        "P_EXT_IMG_PARAM": ""
    },
    {
        "c3prn4s7": "40300",
        "P_SKILL_NAME": "\u95d8\u5204\u306e\u7d99\u5e7b",
        "moWQ30GH": "1",
        "PEVks0h8": "1",
        "E19X6kmB": "4020700,9009058",
        "X4mIT5Lc": "1",
        "P_EXT_IMG_PARAM": ""
    },
    {
        "c3prn4s7": "40400",
        "P_SKILL_NAME": "\u9b42\u53eb\u306e\u9ed2\u7159",
        "moWQ30GH": "1",
        "PEVks0h8": "1",
        "E19X6kmB": "4010000,5050000",
        "X4mIT5Lc": "1",
        "P_EXT_IMG_PARAM": ""
    },
    {
        "c3prn4s7": "40500",
        "P_SKILL_NAME": "\u831c\u70c8\u82b1",
        "moWQ30GH": "1",
        "PEVks0h8": "1",
        "E19X6kmB": "4010003,13000004,6010114",
        "X4mIT5Lc": "1",
        "P_EXT_IMG_PARAM": ""
    },
    {
        "c3prn4s7": "40600",
        "P_SKILL_NAME": "\u6c37\u7740\u88c5\u7532",
        "moWQ30GH": "1",
        "PEVks0h8": "1",
        "E19X6kmB": "4010001,10000004",
        "X4mIT5Lc": "1",
        "P_EXT_IMG_PARAM": ""
    },
    {
        "c3prn4s7": "40700",
        "P_SKILL_NAME": "\u9b42\u7d76\u306e\u9ed2\u754c",
        "moWQ30GH": "1",
        "PEVks0h8": "1",
        "E19X6kmB": "4010003,5050003,1016300",
        "X4mIT5Lc": "1",
        "P_EXT_IMG_PARAM": ""
    },
    {
        "c3prn4s7": "50000",
        "P_SKILL_NAME": "\u5371\u6297\u306e\u95d8\u7fa9",
        "moWQ30GH": "1",
        "PEVks0h8": "1",
        "E19X6kmB": "5040012",
        "X4mIT5Lc": "1",
        "P_EXT_IMG_PARAM": ""
    },
    {
        "c3prn4s7": "50100",
        "P_SKILL_NAME": "\u76db\u6607\u306e\u95d8\u7fa9",
        "moWQ30GH": "1",
        "PEVks0h8": "1",
        "E19X6kmB": "5050000",
        "X4mIT5Lc": "1",
        "P_EXT_IMG_PARAM": ""
    },
    {
        "c3prn4s7": "50200",
        "P_SKILL_NAME": "\u8972\u5203\u306e\u95d8\u7fa9",
        "moWQ30GH": "1",
        "PEVks0h8": "1",
        "E19X6kmB": "5020005",
        "X4mIT5Lc": "1",
        "P_EXT_IMG_PARAM": ""
    },
    {
        "c3prn4s7": "50300",
        "P_SKILL_NAME": "\u8a0e\u7834\u306e\u95d8\u7fa9",
        "moWQ30GH": "1",
        "PEVks0h8": "1",
        "E19X6kmB": "5030004",
        "X4mIT5Lc": "1",
        "P_EXT_IMG_PARAM": ""
    },
    {
        "c3prn4s7": "50400",
        "P_SKILL_NAME": "\u932c\u8853\u30fb\u7149\u95d8\u7fa9",
        "moWQ30GH": "1",
        "PEVks0h8": "1",
        "E19X6kmB": "5010000,5050000",
        "X4mIT5Lc": "1",
        "P_EXT_IMG_PARAM": ""
    },
    {
        "c3prn4s7": "50500",
        "P_SKILL_NAME": "\u5371\u6297\u306e\u8ee2\u798d",
        "moWQ30GH": "1",
        "PEVks0h8": "1",
        "E19X6kmB": "5040012,6030008",
        "X4mIT5Lc": "1",
        "P_EXT_IMG_PARAM": ""
    },
    {
        "c3prn4s7": "50600",
        "P_SKILL_NAME": "\u6f38\u932c\u306e\u7adc\u89d2",
        "moWQ30GH": "1",
        "PEVks0h8": "1",
        "E19X6kmB": "5010001,6010111",
        "X4mIT5Lc": "1",
        "P_EXT_IMG_PARAM": ""
    },
    {
        "c3prn4s7": "50700",
        "P_SKILL_NAME": "\u8679\u306e\u8f1d\u7ffc",
        "moWQ30GH": "1",
        "PEVks0h8": "1",
        "E19X6kmB": "5070006,5040014,7050001",
        "X4mIT5Lc": "1",
        "P_EXT_IMG_PARAM": ""
    },
    {
        "c3prn4s7": "50800",
        "P_SKILL_NAME": "\u5149\u5c64\u306e\u672a\u66a6",
        "moWQ30GH": "1",
        "PEVks0h8": "1",
        "E19X6kmB": "5010001,11090017",
        "X4mIT5Lc": "1",
        "P_EXT_IMG_PARAM": ""
    },
    {
        "c3prn4s7": "60000",
        "P_SKILL_NAME": "\u5371\u6297\u306e\u7cbe\u6075",
        "moWQ30GH": "1",
        "PEVks0h8": "1",
        "E19X6kmB": "6030006",
        "X4mIT5Lc": "1",
        "P_EXT_IMG_PARAM": ""
    },
    {
        "c3prn4s7": "60100",
        "P_SKILL_NAME": "\u547d\u6676\u306e\u6075\u9858",
        "moWQ30GH": "1",
        "PEVks0h8": "1",
        "E19X6kmB": "6020001",
        "X4mIT5Lc": "1",
        "P_EXT_IMG_PARAM": ""
    },
    {
        "c3prn4s7": "60200",
        "P_SKILL_NAME": "\u8972\u5203\u306e\u7cbe\u596a",
        "moWQ30GH": "1",
        "PEVks0h8": "1",
        "E19X6kmB": "6060004",
        "X4mIT5Lc": "1",
        "P_EXT_IMG_PARAM": ""
    },
    {
        "c3prn4s7": "60201",
        "P_SKILL_NAME": "\u5de8\u5149\u306e\u7cbe\u596a",
        "moWQ30GH": "1",
        "PEVks0h8": "1",
        "E19X6kmB": "6060007",
        "X4mIT5Lc": "1",
        "P_EXT_IMG_PARAM": ""
    },
    {
        "c3prn4s7": "60300",
        "P_SKILL_NAME": "\u30ea\u30da\u30a2\u30d7\u30ed\u30b0\u30e9\u30e0",
        "moWQ30GH": "1",
        "PEVks0h8": "1",
        "E19X6kmB": "6010200",
        "X4mIT5Lc": "1",
        "P_EXT_IMG_PARAM": ""
    },
    {
        "c3prn4s7": "70100",
        "P_SKILL_NAME": "\u547d\u6676\u306e\u8abf\u6602",
        "moWQ30GH": "1",
        "PEVks0h8": "1",
        "E19X6kmB": "7010000",
        "X4mIT5Lc": "1",
        "P_EXT_IMG_PARAM": ""
    },
    {
        "c3prn4s7": "80000",
        "P_SKILL_NAME": "\u9ebb\u75fa\u306e\u77e5\u8b58",
        "moWQ30GH": "1",
        "PEVks0h8": "1",
        "E19X6kmB": "8007001",
        "X4mIT5Lc": "1",
        "P_EXT_IMG_PARAM": ""
    },
    {
        "c3prn4s7": "80100",
        "P_SKILL_NAME": "\u6bd2\u546a\u306e\u95c7\u53e1",
        "moWQ30GH": "1",
        "PEVks0h8": "1",
        "E19X6kmB": "8016100",
        "X4mIT5Lc": "1",
        "P_EXT_IMG_PARAM": ""
    },
    {
        "c3prn4s7": "80200",
        "P_SKILL_NAME": "\u714c\u970a\u8853\u5f0f",
        "moWQ30GH": "1",
        "PEVks0h8": "1",
        "E19X6kmB": "8016800,1000103",
        "X4mIT5Lc": "1",
        "P_EXT_IMG_PARAM": ""
    },
    {
        "c3prn4s7": "80300",
        "P_SKILL_NAME": "\u7279\u8cde\u30fb\u9ec4\u91d1\u547d\u68fa",
        "moWQ30GH": "1",
        "PEVks0h8": "1",
        "E19X6kmB": "8017000,1004101",
        "X4mIT5Lc": "1",
        "P_EXT_IMG_PARAM": ""
    },
    {
        "c3prn4s7": "80400",
        "P_SKILL_NAME": "\u7642\u5947\u306e\u30d1\u30d4\u30eb\u30b9",
        "moWQ30GH": "1",
        "PEVks0h8": "1",
        "E19X6kmB": "8017201,6030008",
        "X4mIT5Lc": "1",
        "P_EXT_IMG_PARAM": ""
    },
    {
        "c3prn4s7": "90100",
        "P_SKILL_NAME": "\u9ebb\u75fa\u306e\u539f\u8755",
        "moWQ30GH": "1",
        "PEVks0h8": "1",
        "E19X6kmB": "9007058",
        "X4mIT5Lc": "1",
        "P_EXT_IMG_PARAM": ""
    },
    {
        "c3prn4s7": "90200",
        "P_SKILL_NAME": "\u5947\u60a3\u306e\u8755\u82db",
        "moWQ30GH": "1",
        "PEVks0h8": "1",
        "E19X6kmB": "9020004",
        "X4mIT5Lc": "1",
        "P_EXT_IMG_PARAM": ""
    },
    {
        "c3prn4s7": "90300",
        "P_SKILL_NAME": "\u4e71\u60a3\u306e\u8755\u82db",
        "moWQ30GH": "1",
        "PEVks0h8": "1",
        "E19X6kmB": "9009058,9010058",
        "X4mIT5Lc": "1",
        "P_EXT_IMG_PARAM": ""
    },
    {
        "c3prn4s7": "100000",
        "P_SKILL_NAME": "\u5e7b\u59ff\u6c17\u52d5",
        "moWQ30GH": "1",
        "PEVks0h8": "1",
        "E19X6kmB": "10200001",
        "X4mIT5Lc": "1",
        "P_EXT_IMG_PARAM": ""
    },
    {
        "c3prn4s7": "100100",
        "P_SKILL_NAME": "\u7121\u6d41\u6c17\u5fa8",
        "moWQ30GH": "1",
        "PEVks0h8": "1",
        "E19X6kmB": "10300001",
        "X4mIT5Lc": "1",
        "P_EXT_IMG_PARAM": ""
    },
    {
        "c3prn4s7": "100200",
        "P_SKILL_NAME": "\u30d0\u30eb\u30ca\u30c9\u306e\u8d6b\u9192",
        "moWQ30GH": "1",
        "PEVks0h8": "1",
        "E19X6kmB": "10030000,11070000",
        "X4mIT5Lc": "1",
        "P_EXT_IMG_PARAM": ""
    },
    {
        "c3prn4s7": "100300",
        "P_SKILL_NAME": "\u5b9d\u81a8\u88ab\u819c",
        "moWQ30GH": "1",
        "PEVks0h8": "1",
        "E19X6kmB": "10020001,1004101",
        "X4mIT5Lc": "1",
        "P_EXT_IMG_PARAM": ""
    },
    {
        "c3prn4s7": "100400",
        "P_SKILL_NAME": "\u5e7b\u59ff\u5947\u697c",
        "moWQ30GH": "1",
        "PEVks0h8": "1",
        "E19X6kmB": "10200000,12000001,12000002",
        "X4mIT5Lc": "1",
        "P_EXT_IMG_PARAM": ""
    },
    {
        "c3prn4s7": "100500",
        "P_SKILL_NAME": "\u9b54\u8a60\u306e\u58ee\u76fe",
        "moWQ30GH": "1",
        "PEVks0h8": "1",
        "E19X6kmB": "10001001",
        "X4mIT5Lc": "1",
        "P_EXT_IMG_PARAM": ""
    },
    {
        "c3prn4s7": "100600",
        "P_SKILL_NAME": "\u767d\u9280\u306e\u5916\u5957",
        "moWQ30GH": "1",
        "PEVks0h8": "1",
        "E19X6kmB": "12000312",
        "X4mIT5Lc": "1",
        "P_EXT_IMG_PARAM": ""
    },
    {
        "c3prn4s7": "100700",
        "P_SKILL_NAME": "\u696d\u9b54\u304c\u8a98\u3046\u96d9\u7344",
        "moWQ30GH": "1",
        "PEVks0h8": "1",
        "E19X6kmB": "10018201,4021000,12000004",
        "X4mIT5Lc": "1",
        "P_EXT_IMG_PARAM": ""
    },
    {
        "c3prn4s7": "100800",
        "P_SKILL_NAME": "\u696d\u9b54\u304c\u596a\u3046\u96d9\u970a",
        "moWQ30GH": "1",
        "PEVks0h8": "1",
        "E19X6kmB": "10018301,4020900,12000004",
        "X4mIT5Lc": "1",
        "P_EXT_IMG_PARAM": ""
    },
    {
        "c3prn4s7": "100900",
        "P_SKILL_NAME": "\u696d\u9b54\u304c\u5bbf\u3059\u96d9\u5e7b",
        "moWQ30GH": "1",
        "PEVks0h8": "1",
        "E19X6kmB": "10018401,4020804,12000004",
        "X4mIT5Lc": "1",
        "P_EXT_IMG_PARAM": ""
    },
    {
        "c3prn4s7": "110000",
        "P_SKILL_NAME": "\u30b9\u30ad\u30eb\u30e9\u30a4\u30ba",
        "moWQ30GH": "1",
        "PEVks0h8": "1",
        "E19X6kmB": "20000000",
        "X4mIT5Lc": "1",
        "P_EXT_IMG_PARAM": ""
    },
    {
        "c3prn4s7": "120000",
        "P_SKILL_NAME": "\u6f5c\u653b\u614b\u52e2",
        "moWQ30GH": "1",
        "PEVks0h8": "1",
        "E19X6kmB": "12000000,1000200",
        "X4mIT5Lc": "1",
        "P_EXT_IMG_PARAM": ""
    },
    {
        "c3prn4s7": "120100",
        "P_SKILL_NAME": "\u5371\u6297\u306e\u53eb\u6602",
        "moWQ30GH": "1",
        "PEVks0h8": "1",
        "E19X6kmB": "12000100",
        "X4mIT5Lc": "1",
        "P_EXT_IMG_PARAM": ""
    },
    {
        "c3prn4s7": "120200",
        "P_SKILL_NAME": "\u9583\u86ee\u306e\u91ce\u6027",
        "moWQ30GH": "1",
        "PEVks0h8": "1",
        "E19X6kmB": "13000000",
        "X4mIT5Lc": "1",
        "P_EXT_IMG_PARAM": ""
    }
]